{
    "head": {
        " ": "High risk of impact",
        "Brand": "Bull-it",
        "Model": "SP120 Lite Heritage Easy",
        "Type": "Pants - Denim",
        "Date purchased": "4 July 2018",
        "Sizes tested": "36",
        "Gender": "M",
        "Style": "All Purpose",
        "Test code": "P18D03",
        "Rating": "Result",
        "MotoCAP Protection Rating": "\uf0ea          23.2",
        "Abrasion": "2/10        1.42",
        "Burst": "8/10        804",
        "Impact": "1/10         0.0",
        "MotoCAP Comfort Rating": "\uf0ea\uf0ea\uf0ea         0.515",
        "Moisture Vapour Resistance": "22.5",
        "Thermal Resistance": "0.193",
        "Water Resistance": "N/A",
        "Zone 1": "Zone 2                      Zone 3                       Zone 4",
        "High risk of abrasion": "High risk of abrasion     Medium risk of abrasion         Low risk of abrasion"
    },
    "materials": {
        "A": {
            "code": "A",
            "desc": "Single layer of denim outer, kevlar knitted fabric plus mesh inner liner",
            "avg": 2.03,
            "vals": [
                "1.89",
                "2.14",
                "2.02",
                "1.32",
                "2.27",
                "2.55"
            ]
        },
        "B": {
            "code": "B",
            "desc": "Single layer of denim outer plus mesh inner liner",
            "avg": 0.66,
            "vals": [
                "0.87",
                "0.71",
                "0.46",
                "0.95",
                "0.56",
                "0.44"
            ]
        },
        "C": {
            "code": "C",
            "desc": "Single layer of denim",
            "avg": 0.36,
            "vals": [
                "0.42",
                "0.31",
                "0.39",
                "0.37",
                "0.31",
                "0.37"
            ]
        }
    },
    "abrasion": {
        "rating": 2.0,
        "result": 1.42
    },
    "burst": {
        "rating": 8.0,
        "result": 804.0
    },
    "impact": {
        "rating": 1.0,
        "result": 0.0
    },
    "moisture_vapour_resistance": 22.5,
    "thermal_resistance": 0.193,
    "water_resistance": "N/A",
    "file": "reports/Bull-it__SP120__Lite__Heritage__Easy__MotoCAP__report.txt"
}