{
    "head": {
        " ": "High risk of impact",
        "Brand": "DriRider",
        "Model": "Rapid",
        "Type": "Pants - Denim",
        "Date purchased": "4 July 2018",
        "Sizes tested": "36",
        "Gender": "M",
        "Style": "All Purpose",
        "Test code": "P18D04",
        "Rating": "Result",
        "MotoCAP Protection Rating": "\uf0ea\uf0ea          33.2",
        "Abrasion": "1/10        0.88",
        "Burst": "8/10        852",
        "Impact": "5/10        39.2",
        "MotoCAP Comfort Rating": "\uf0ea\uf0ea\uf0ea         0.599",
        "Moisture Vapour Resistance": "15.9",
        "Thermal Resistance": "0.159",
        "Water Resistance": "N/A",
        "Zone 1": "Zone 2                      Zone 3                       Zone 4",
        "High risk of abrasion": "High risk of abrasion     Medium risk of abrasion         Low risk of abrasion"
    },
    "materials": {
        "A": {
            "code": "A",
            "desc": "Single layer of denim outer plus kevlar knitted fabric inner liner",
            "avg": 1.27,
            "vals": [
                "1.16",
                "1.19",
                "1.87",
                "1.15",
                "1.12",
                "1.12"
            ]
        },
        "B": {
            "code": "B",
            "desc": "Single layer of denim",
            "avg": 0.29,
            "vals": [
                "0.29",
                "0.30",
                "0.22",
                "0.38",
                "0.31",
                "0.24"
            ]
        }
    },
    "abrasion": {
        "rating": 1.0,
        "result": 0.88
    },
    "burst": {
        "rating": 8.0,
        "result": 852.0
    },
    "impact": {
        "rating": 5.0,
        "result": 39.2
    },
    "moisture_vapour_resistance": 15.9,
    "thermal_resistance": 0.159,
    "water_resistance": "N/A",
    "file": "reports/Dririder__Rapid__MotoCAP__report.txt"
}