{
    "head": {
        " ": "Test Results Summary:",
        "Brand": "Ducati",
        "Model": "G. Pelle Corse C3",
        "Type": "Jacket - Leather",
        "Date purchased": "23 July 2018",
        "Sizes tested": "L",
        "Gender": "M",
        "Style": "Sports",
        "Test code": "J18L07",
        "Rating": "Result",
        "MotoCAP Protection Rating": "\uf0ea\uf0ea\uf0ea\uf0ea          75.0",
        "Abrasion": "8/10        5.91",
        "Burst": "10/10       1472",
        "Impact": "7/10        53.2",
        "MotoCAP Comfort Rating": "\uf0e5         0.114",
        "Moisture Vapour Resistance": "122.2",
        "Thermal Resistance": "0.232",
        "Water Resistance": "N/A",
        "Zone 1": "Zone 2                      Zone 3                      Zone 4",
        "High risk of abrasion": "High ri"
    },
    "materials": {
        "A": {
            "code": "A",
            "desc": "Single layer of stretch leather outer, fabric layer and mesh inner liner",
            "avg": 5.99,
            "vals": [
                "8.10",
                "4.75",
                "5.25",
                "6.29",
                "6.96",
                "4.59"
            ]
        },
        "B": {
            "code": "B",
            "desc": "Single layer of leather outer and thick 3D mesh inner liner",
            "avg": 8.01,
            "vals": [
                "7.49",
                "8.44",
                "7.56",
                "7.68",
                "8.79",
                "8.09"
            ]
        },
        "C": {
            "code": "C",
            "desc": "Single layer of leather outer and mesh inner liner",
            "avg": 3.79,
            "vals": [
                "3.45",
                "3.01",
                "3.86",
                "4.03",
                "4.55",
                "3.88"
            ]
        },
        "D": {
            "code": "D",
            "desc": "Stretch fabric outer and mesh inner liner",
            "avg": 2.44,
            "vals": [
                "2.13",
                "1.50",
                "3.48",
                "2.67"
            ]
        }
    },
    "abrasion": {
        "rating": 8.0,
        "result": 5.91
    },
    "burst": {
        "rating": 10.0,
        "result": 1472.0
    },
    "impact": {
        "rating": 7.0,
        "result": 53.2
    },
    "moisture_vapour_resistance": 122.2,
    "thermal_resistance": 0.232,
    "water_resistance": "N/A",
    "file": "reports/Ducati__G__Pelle__Corse__C3__MotoCAP__report.txt"
}