{
    "head": {
        " ": "Rev'it RSR 3",
        "Brand": "Rev'It",
        "Model": "RSR 3",
        "Type": "Glove - Leather",
        "Date purchased": "29 November 2018",
        "Sizes tested": "XL",
        "Gender": "M&F",
        "Style": "All Purpose",
        "Test code": "G18L21",
        "Rating": "Result",
        "MotoCAP Protection Rating": "\uf0ea\uf0ea\uf0ea\uf0ea            4.2",
        "Abrasion": "10/10         5.51",
        "Seam strength": "6/10         10.9",
        "Impact": "6/10         10.4",
        "Water resistance": "N/A          N/A",
        "Zone 1": "Zone 2                      Zone 3                      Zone 4",
        "High risk of impact": "High risk of abrasion     Medium risk of abrasion       Low risk of abrasion"
    },
    "materials": {
        "A": {
            "code": "A",
            "desc": "Leather patch, leather shell and fabric inner liner",
            "avg": 7.12,
            "vals": [
                "6.54",
                "5.81",
                "9.36",
                "6.77"
            ]
        },
        "B": {
            "code": "B",
            "desc": "Leather shell and fabric inner liner",
            "avg": 4.52,
            "vals": [
                "6.60",
                "4.12",
                "3.65",
                "3.96",
                "4.25"
            ]
        },
        "C": {
            "code": "C",
            "desc": "Perforated leather shell and fabric inner liner",
            "avg": 3.5,
            "vals": [
                "3.62",
                "4.21",
                "3.41",
                "3.61",
                "3.55",
                "2.58"
            ]
        },
        "D": {
            "code": "D",
            "desc": "Leather shell, foam layer, fabric layer and fabric inner liner",
            "avg": 6.45,
            "vals": [
                "6.92",
                "9.43",
                "5.02",
                "7.37",
                "4.72",
                "5.21"
            ]
        }
    },
    "abrasion": {
        "rating": 10.0,
        "result": 5.51
    },
    "impact": {
        "rating": 6.0,
        "result": 10.4
    },
    "file": "reports/G18L21__Rev__it__RSR__3__Leather__Glove__V2.txt"
}