{
    "head": {
        " ": "RST Urban Air II",
        "Brand": "RST",
        "Model": "Urban Air II",
        "Type": "Glove - Leather",
        "Date purchased": "4 February 2019",
        "Sizes tested": "11 and 12",
        "Gender": "M",
        "Style": "All Purpose",
        "Test code": "G19L02",
        "Rating": "Result",
        "MotoCAP Protection Rating": "\uf0ea           1.5",
        "Abrasion": "2/10        1.35",
        "Seam strength": "2/10         6.4",
        "Impact": "2/10         5.3",
        "Water resistance": "N/A         N/A",
        "Zone 1": "Zone 2                      Zone 3                     Zone 4",
        "High risk of impact": "High risk of abrasion     Medium risk of abrasion       Low risk of abrasion"
    },
    "materials": {
        "A": {
            "code": "A",
            "desc": "Leather shell and mesh inner liner",
            "avg": 1.38,
            "vals": [
                "1.63",
                "0.84",
                "1.77",
                "0.83",
                "1.53",
                "1.72"
            ]
        },
        "B": {
            "code": "B",
            "desc": "Stretch mesh fabric shell and mesh inner liner",
            "avg": 1.18,
            "vals": [
                "1.33",
                "1.26",
                "1.05",
                "0.57",
                "1.55",
                "1.34"
            ]
        }
    },
    "abrasion": {
        "rating": 2.0,
        "result": 1.35
    },
    "impact": {
        "rating": 2.0,
        "result": 5.3
    },
    "file": "reports/G19L02__RST__Urban__Air__II__Leather__Glove.txt"
}