{
    "head": {
        " ": "MotoDry Street",
        "Brand": "MotoDry",
        "Model": "Street",
        "Type": "Glove - Leather",
        "Date purchased": "9 August 2019",
        "Sizes tested": "XL",
        "Gender": "M&F",
        "Style": "Sports",
        "Test code": "G19L24",
        "Rating": "Result",
        "MotoCAP Protection Rating": "\uf0ea\uf0ea            2.3",
        "Abrasion": "7/10        3.50",
        "Seam strength": "1/10         4.9",
        "Impact": "1/10         3.5",
        "Water resistance": "N/A         N/A",
        "Zone 1": "Zone 2                      Zone 3                     Zone 4",
        "High risk of impact": "High risk of abrasion     Medium risk of abrasion       Low risk of abrasion"
    },
    "materials": {
        "A": {
            "code": "A",
            "desc": "Leather shell with fabric inner liner",
            "avg": 2.97,
            "vals": [
                "3.67",
                "3.40",
                "2.86",
                "3.49",
                "1.42"
            ]
        },
        "B": {
            "code": "B",
            "desc": "Quilted leather shell with fabric inner liner",
            "avg": 5.21,
            "vals": [
                "6.96",
                "3.46",
                "5.44",
                "2.88",
                "7.28"
            ]
        },
        "C": {
            "code": "C",
            "desc": "Perforated leather shell with fabric inner liner",
            "avg": 0.57,
            "vals": [
                "0.29",
                "0.85",
                "0.87",
                "0.88",
                "0.03",
                "0.51"
            ]
        }
    },
    "abrasion": {
        "rating": 7.0,
        "result": 3.5
    },
    "impact": {
        "rating": 1.0,
        "result": 3.5
    },
    "file": "reports/G19L24__Motodry__Street__Leather__Glove.txt"
}