{
    "head": {
        " ": "Rjays Jet Stream 3",
        "Brand": "Rjays",
        "Model": "Jet Stream III",
        "Type": "Glove - Leather",
        "Date purchased": "4 February 2019",
        "Sizes tested": "L, XL and 2XL",
        "Gender": "M&F",
        "Style": "All Purpose",
        "Test code": "G19L05",
        "Rating": "Result",
        "MotoCAP Protection Rating": "\u2be8           0.5",
        "Abrasion": "1/10        0.27",
        "Seam strength": "1/10         1.8",
        "Impact": "1/10         3.0",
        "Water resistance": "N/A         N/A",
        "Zone 1": "Zone 2                        Zone 3                   Zone 4",
        "High risk of impact": "High risk of abrasion     Medium risk of abrasion       Low risk of abrasion"
    },
    "materials": {
        "A": {
            "code": "A",
            "desc": "Leather patch over leather shell, foam layer and mesh inner liner",
            "avg": 4.26,
            "vals": [
                "3.40",
                "3.19",
                "3.03",
                "3.68",
                "5.58",
                "6.67"
            ]
        },
        "B": {
            "code": "B",
            "desc": "Mesh shell and mesh inner liner",
            "avg": 0.82,
            "vals": [
                "0.90",
                "0.32",
                "0.98",
                "1.51",
                "0.80",
                "0.41"
            ]
        },
        "C": {
            "code": "C",
            "desc": "Leather shell, foam layer and mesh inner liner",
            "avg": 1.88,
            "vals": [
                "0.92",
                "1.62",
                "3.77",
                "1.19"
            ]
        },
        "D": {
            "code": "D",
            "desc": "Leather shell and mesh inner liner",
            "avg": 0.53,
            "vals": [
                "0.20",
                "0.06",
                "0.92",
                "1.30",
                "0.15"
            ]
        },
        "E": {
            "code": "E",
            "desc": "Mesh fabric shell and foam inner liner",
            "avg": 1.05,
            "vals": [
                "1.04",
                "1.88",
                "1.12",
                "0.63",
                "0.59"
            ]
        }
    },
    "abrasion": {
        "rating": 1.0,
        "result": 0.27
    },
    "impact": {
        "rating": 1.0,
        "result": 3.0
    },
    "file": "reports/G19L05__Rjays__Jet__Stream__3__Leather__Glove.txt"
}