{
    "head": {
        " ": "Triumph Lothian",
        "Brand": "Triumph",
        "Model": "Lothian",
        "Type": "Glove - Leather",
        "Date purchased": "5 February 2019",
        "Sizes tested": "2XL and 3XL",
        "Gender": "M&F",
        "Style": "All Purpose",
        "Test code": "G19L09",
        "Rating": "Result",
        "MotoCAP Protection Rating": "\uf0ea\uf0ea            2.1",
        "Abrasion": "6/10        3.05",
        "Seam strength": "1/10         2.9",
        "Impact": "1/10         4.5",
        "Water resistance": "N/A         N/A",
        "Zone 1": "Zone 2                      Zone 3                      Zone 4",
        "High risk of impact": "High risk of abrasion     Medium risk of abrasion       Low risk of abrasion"
    },
    "materials": {
        "A": {
            "code": "A",
            "desc": "Leather shell, foam layer and fleecy fabric inner liner",
            "avg": 2.91,
            "vals": [
                "1.24",
                "2.24",
                "3.20",
                "4.11",
                "3.84",
                "2.80"
            ]
        },
        "B": {
            "code": "B",
            "desc": "Suede leather patch over leather shell, foam layer and fleecy fabric inner liner",
            "avg": 3.7,
            "vals": [
                "5.03",
                "3.80",
                "4.20",
                "0.19",
                "4.16",
                "4.84"
            ]
        }
    },
    "abrasion": {
        "rating": 6.0,
        "result": 3.05
    },
    "impact": {
        "rating": 1.0,
        "result": 4.5
    },
    "file": "reports/G19L09__Triumph__Lothian__Leather__Glove.txt"
}