{
    "head": {
        " ": "Wrist",
        "Brand": "RST",
        "Model": "Ventek",
        "Type": "Glove - Leather",
        "Date purchased": "6 July 2020",
        "Sizes tested": "XL and 3XL",
        "Test glove gender": "Male",
        "Style": "All Purpose",
        "RRP": "$89.95",
        "Rating": "Score",
        "MotoCAP Protection Rating": "\u2605            1.3",
        "Abrasion": "3/10         1.82",
        "Seam strength": "1/10          1.1",
        "Impact": "1/10          3.1",
        "Water resistance": "N/A           N/A",
        "Knuckles": "\uf0fc",
        "Zone 1": "Zo"
    },
    "materials": {
        "A": {
            "code": "A",
            "avg": 1.36,
            "vals": [
                "1.85",
                "1.69",
                "0.55",
                "1.06",
                "1.91",
                "1.08"
            ],
            "desc": "Perforated leather shell"
        },
        "B": {
            "code": "B",
            "avg": 5.03,
            "vals": [
                "5.66",
                "4.77",
                "5.77",
                "3.71",
                "4.94",
                "5.36"
            ],
            "desc": "Suede leather patch over leather shell"
        }
    },
    "abrasion": {
        "rating": 3.0,
        "result": 1.82
    },
    "impact": {
        "rating": 1.0,
        "result": 3.1
    },
    "file": "reports/G19L59__RST__Ventek__Leather__Glove.txt"
}