{
    "head": {
        " ": "Ducati Sport C2",
        "Brand": "Ducati",
        "Model": "Sport C2",
        "Type": "Glove - Leather",
        "Date purchased": "13 May 2019",
        "Sizes tested": "M and XXL",
        "Gender": "M",
        "Style": "Sports",
        "Test code": "G19L13",
        "Rating": "Result",
        "MotoCAP Protection Rating": "\uf0ea\uf0ea            2.4",
        "Abrasion": "7/10        3.57",
        "Seam strength": "1/10         3.6",
        "Impact": "2/10         5.2",
        "Water resistance": "N/A         N/A",
        "Zone 1": "Zone 2                      Zone 3                     Zone 4",
        "High risk of impact": "High risk of abrasion     Medium risk of abrasion       Low risk of abrasion"
    },
    "materials": {
        "A": {
            "code": "A",
            "desc": "Suede leather patch over leather shell, foam layer and fabric inner liner",
            "avg": 3.07,
            "vals": [
                "2.03",
                "3.57",
                "3.82",
                "2.87"
            ]
        },
        "B": {
            "code": "B",
            "desc": "Suede leather patch over leather shell with fabric inner liner",
            "avg": 4.59,
            "vals": [
                "2.41",
                "4.84",
                "5.49",
                "5.60"
            ]
        },
        "C": {
            "code": "C",
            "desc": "Perforated leather shell and fabric inner liner",
            "avg": 2.77,
            "vals": [
                "1.26",
                "4.34",
                "3.01",
                "2.49"
            ]
        },
        "D": {
            "code": "D",
            "desc": "Leather shell, foam layer and fabric inner liner",
            "avg": 6.25,
            "vals": [
                "6.11",
                "4.76",
                "6.77",
                "7.36"
            ]
        }
    },
    "abrasion": {
        "rating": 7.0,
        "result": 3.57
    },
    "impact": {
        "rating": 2.0,
        "result": 5.2
    },
    "file": "reports/G19L13__Ducati__Sport__C2__Leather__Glove.txt"
}