{
    "head": {
        " ": "Five Arizona",
        "Brand": "Five",
        "Model": "Arizona",
        "Type": "Glove - Leather",
        "Date purchased": "9 March 2020",
        "Sizes tested": "XL and 2XL",
        "Gender": "M",
        "Style": "All Purpose",
        "Test code": "G19L43",
        "Rating": "Result",
        "MotoCAP Protection Rating": "\uf0ea\uf0ea            3.4",
        "Abrasion": "10/10        6.13",
        "Seam strength": "1/10         4.7",
        "Impact": "1/10         1.7",
        "Water resistance": "N/A         N/A",
        "Zone 1": "Zone 2                      Zone 3                     Zone 4",
        "High risk of impact": "High risk of abrasion     Medium risk of abrasion       Low risk of abrasion"
    },
    "materials": {
        "A": {
            "code": "A",
            "desc": "Quilted leather patch over leather shell",
            "avg": 6.97,
            "vals": [
                "7.23",
                "7.29",
                "8.67",
                "6.64",
                "5.11",
                "6.90"
            ]
        },
        "B": {
            "code": "B",
            "desc": "Perforated leather patch over leather shell",
            "avg": 6.68,
            "vals": [
                "7.18",
                "7.43",
                "5.68",
                "4.80",
                "8.00",
                "7.00"
            ]
        },
        "C": {
            "code": "C",
            "desc": "Perforated leather shell",
            "avg": 2.98,
            "vals": [
                "2.12",
                "2.91",
                "3.86",
                "3.69",
                "1.46",
                "3.83"
            ]
        },
        "D": {
            "code": "D",
            "desc": "Quilted leather shell with fabric inner liner",
            "avg": 6.75,
            "vals": [
                "6.46",
                "7.77",
                "5.35",
                "7.93",
                "6.22"
            ]
        },
        "E": {
            "code": "E",
            "desc": "Perforated leather shell with fabric inner liner",
            "avg": 3.11,
            "vals": [
                "3.74",
                "3.21",
                "3.24",
                "1.48",
                "3.46",
                "3.52"
            ]
        }
    },
    "abrasion": {
        "rating": 10.0,
        "result": 6.13
    },
    "impact": {
        "rating": 1.0,
        "result": 1.7
    },
    "file": "reports/G19L43__Five__Arizona__Leather__Glove.txt"
}