{
    "head": {
        " ": "Rjays Polar Control II Ladies",
        "Brand": "Rjays",
        "Model": "Polar Control II Ladies",
        "Type": "Glove - Leather",
        "Date purchased": "8 October 2019",
        "Sizes tested": "L and XL",
        "Gender": "F",
        "Style": "All Purpose",
        "Test code": "G19L26",
        "Rating": "Result",
        "MotoCAP Protection Rating": "\uf0ea           1.7",
        "Abrasion": "5/10        2.58",
        "Seam strength": "1/10         3.9",
        "Impact": "1/10         2.4",
        "Water resistance": "1/10         55",
        "Zone 1": "Zone 2                      Zone 3                     Zone 4",
        "High risk of impact": "High risk of abrasion     Medium risk of abrasion       Low risk of abrasion"
    },
    "materials": {
        "A": {
            "code": "A",
            "desc": "Leather patch over textile shell, water-resistant layer and foam inner liner",
            "avg": 1.79,
            "vals": [
                "2.03",
                "1.36",
                "2.12",
                "1.26",
                "2.77",
                "1.23"
            ]
        },
        "B": {
            "code": "B",
            "desc": "Textile shell, water-resistant layer, foam inner liner",
            "avg": 1.27,
            "vals": [
                "1.18",
                "1.59",
                "1.10",
                "1.21"
            ]
        },
        "C": {
            "code": "C",
            "desc": "Leather patch over leather shell, water-resistant layer and foam inner liner",
            "avg": 7.95,
            "vals": [
                "4.68",
                "10.00",
                "8.22",
                "6.86",
                "10.00"
            ]
        },
        "D": {
            "code": "D",
            "desc": "Leather shell, water-resistant layer and foam inner liner",
            "avg": 3.43,
            "vals": [
                "4.57",
                "5.17",
                "2.15",
                "1.85"
            ]
        }
    },
    "abrasion": {
        "rating": 5.0,
        "result": 2.58
    },
    "impact": {
        "rating": 1.0,
        "result": 2.4
    },
    "file": "reports/G19L26__Rjays__Polar__Control__II__Ladies__Leather__Glove.txt"
}