{
    "head": {
        " ": "Rev'it Summit 3 H2O",
        "Brand": "Rev'It",
        "Model": "Summit 3 H2O",
        "Type": "Glove - Leather",
        "Date purchased": "9 March 2020",
        "Sizes tested": "XL,2XL and 3XL",
        "Gender": "M",
        "Style": "All Purpose",
        "Test code": "G19L45",
        "Rating": "Result",
        "MotoCAP Protection Rating": "\uf0ea\uf0ea            2.9",
        "Abrasion": "7/10        3.90",
        "Seam strength": "4/10         8.2",
        "Impact": "3/10         5.7",
        "Water resistance": "1/10        168",
        "Zone 1": "Zone 2                      Zone 3                     Zone 4",
        "High risk of impact": "High risk of abrasion     Medium risk of abrasion       Low risk of abrasion"
    },
    "materials": {
        "A": {
            "code": "A",
            "desc": "Leather patch over leather shell, water resistant layer and fabric inner liner",
            "avg": 5.8,
            "vals": [
                "5.59",
                "5.09",
                "5.82",
                "7.92",
                "5.88",
                "4.50"
            ]
        },
        "B": {
            "code": "B",
            "desc": "Leather shell, water resistant layer and fabric inner liner",
            "avg": 2.72,
            "vals": [
                "3.04",
                "3.56",
                "3.94",
                "1.82",
                "1.63",
                "2.34"
            ]
        },
        "C": {
            "code": "C",
            "desc": "Fabric shell, water resistant layer and fabric inner liner",
            "avg": 0.77,
            "vals": [
                "0.77",
                "0.64",
                "0.61",
                "1.29",
                "0.67",
                "0.62"
            ]
        }
    },
    "abrasion": {
        "rating": 7.0,
        "result": 3.9
    },
    "impact": {
        "rating": 3.0,
        "result": 5.7
    },
    "file": "reports/G19L45__Rev_27it__Summit__3__H2O__Leather__Glove.txt"
}