{
    "head": {
        " ": "Merlin Levedale Summer",
        "Brand": "Merlin",
        "Model": "Levedale Summer",
        "Type": "Glove - Leather",
        "Date purchased": "20 January 2020",
        "Sizes tested": "M and XL",
        "Gender": "F",
        "Style": "All Purpose",
        "Test code": "G19L38",
        "Rating": "Result",
        "MotoCAP Protection Rating": "\uf0ea\uf0ea            2.3",
        "Abrasion": "8/10        4.46",
        "Seam strength": "1/10         1.5",
        "Impact": "1/10         0.5",
        "Water resistance": "N/A         N/A",
        "Zone 1": "Zone 2                      Zone 3                     Zone 4",
        "High risk of impact": "High risk of abrasion     Medium risk of abrasion       Low risk of abrasion"
    },
    "materials": {
        "A": {
            "code": "A",
            "desc": "Quilted leather patch over leather shell, foam layer and fabric inner liner",
            "avg": 5.6,
            "vals": [
                "7.66",
                "0.60",
                "5.35",
                "7.78",
                "6.62",
                "5.58"
            ]
        },
        "B": {
            "code": "B",
            "desc": "Perforated leather shell",
            "avg": 1.81,
            "vals": [
                "2.18",
                "2.20",
                "1.32",
                "0.95",
                "2.63",
                "1.56"
            ]
        },
        "C": {
            "code": "C",
            "desc": "Leather shell, foam layer and fabric inner liner",
            "avg": 2.48,
            "vals": [
                "4.27",
                "1.83",
                "2.96",
                "2.15",
                "3.61",
                "0.06"
            ]
        },
        "D": {
            "code": "D",
            "desc": "Perforated leather shell, foam layer and fabric inner liner",
            "avg": 2.43,
            "vals": [
                "4.13",
                "2.98",
                "2.15",
                "2.65",
                "2.68",
                "0.02"
            ]
        }
    },
    "abrasion": {
        "rating": 8.0,
        "result": 4.46
    },
    "impact": {
        "rating": 1.0,
        "result": 0.5
    },
    "file": "reports/G19L38__Merlin__Levedale__Summer__Leather__Glove.txt"
}