{
    "head": {
        " ": "Alpinestars SMX-2 Air Carbon V2",
        "Brand": "Alpinestars",
        "Model": "SMX-2 Air Carbon V2",
        "Type": "Gloves - Leather",
        "Date purchased": "4 February 2019",
        "Sizes tested": "2XL and XL",
        "Gender": "M&F",
        "Style": "All Purpose",
        "Test code": "G19L03",
        "Rating": "Result",
        "MotoCAP Protection Rating": "\uf0ea\uf0ea            2.0",
        "Abrasion": "5/10        2.61",
        "Seam strength": "3/10         7.6",
        "Impact": "1/10         4.0",
        "Water resistance": "N/A         N/A",
        "Zone 1": "Zone 2                      Zone 3                     Zone 4",
        "High risk of impact": "High risk of abrasion     Medium risk of abrasion       Low risk of abrasion"
    },
    "materials": {
        "A": {
            "code": "A",
            "desc": "Single layer of suede leather outer",
            "avg": 2.5,
            "vals": [
                "0.44",
                "2.28",
                "0.61",
                "0.94",
                "1.65",
                "9.09"
            ]
        },
        "B": {
            "code": "B",
            "desc": "Single layer of leather outer",
            "avg": 1.75,
            "vals": [
                "0.79",
                "0.84",
                "3.56",
                "2.07",
                "1.81",
                "1.46"
            ]
        },
        "C": {
            "code": "C",
            "desc": "Polyester mesh fabric outer",
            "avg": 4.51,
            "vals": [
                "7.34",
                "2.52",
                "4.47",
                "2.69",
                "6.54",
                "3.54"
            ]
        }
    },
    "abrasion": {
        "rating": 5.0,
        "result": 2.61
    },
    "impact": {
        "rating": 1.0,
        "result": 4.0
    },
    "file": "reports/G19L03__Alpinestars__SMX-2__Air__Carbon__V2__Leather__Gloves.txt"
}