{
    "head": {
        " ": "Ixon RS Lift HP",
        "Brand": "Ixon",
        "Model": "RS Lift HP",
        "Type": "Gloves - Textile",
        "Date purchased": "11 February 2019",
        "Sizes tested": "XL",
        "Gender": "M&F",
        "Style": "All Purpose",
        "Test code": "G19T01",
        "Rating": "Result",
        "MotoCAP Protection Rating": "\u2be8           0.8",
        "Abrasion": "1/10        0.63",
        "Seam strength": "1/10         1.3",
        "Impact": "1/10         4.2",
        "Water resistance": "N/A         N/A",
        "Zone 1": "Zone 2                      Zone 3                     Zone 4",
        "High risk of impact": "High risk of abrasion     Medium risk of abrasion       Low risk of abrasion"
    },
    "materials": {
        "A": {
            "code": "A",
            "desc": "Suede leather outer layer",
            "avg": 0.57,
            "vals": [
                "1.02",
                "0.21",
                "0.68",
                "0.57",
                "0.37",
                "0.57"
            ]
        },
        "B": {
            "code": "B",
            "desc": "Coarse knit stretch fabric outer layer",
            "avg": 0.63,
            "vals": [
                "0.98",
                "0.09",
                "0.53",
                "1.35",
                "0.69",
                "0.15"
            ]
        },
        "C": {
            "code": "C",
            "desc": "Fine knit neoprene stretch fabric outer layer",
            "avg": 0.57,
            "vals": [
                "0.62",
                "0.60",
                "0.27",
                "0.68",
                "0.78",
                "0.50"
            ]
        }
    },
    "abrasion": {
        "rating": 1.0,
        "result": 0.63
    },
    "impact": {
        "rating": 1.0,
        "result": 4.2
    },
    "file": "reports/G19T01__Ixon__RS__Lift__HP__Textile__Glove_0.txt"
}