{
    "head": {
        " ": "Palm",
        "Brand": "Speed and Strength",
        "Model": "Rust and Redemption",
        "Type": "Glove - Leather",
        "Date purchased": "10 February 2022",
        "Sizes tested": "L, XL and 2XL",
        "Test glove gender": "Male",
        "Style": "All Purpose",
        "RRP": "$139.95",
        "Rating": "Score",
        "MotoCAP Protection Rating": "\u2605          1.9",
        "Abrasion": "7/10      3.65",
        "Seam strength": "1/10       0.9",
        "Impact": "1/10       0.0",
        "Water resistance": "10/10       0.2",
        "Knuckles": "\uf0fc",
        "Zone 1": "Zone 2                       Zone 3",
        "High risk of impact": "High risk of abrasion     Medium risk of "
    },
    "materials": {
        "A": {
            "code": "A",
            "avg": 7.35,
            "vals": [
                "5.86",
                "6.82",
                "7.76",
                "9.48",
                "6.83"
            ],
            "desc": "Leather patch and foam pocket over leather shell with fabric inner liner"
        },
        "B": {
            "code": "B",
            "avg": 2.4,
            "vals": [
                "2.05",
                "2.26",
                "2.46",
                "1.73",
                "3.54",
                "2.37"
            ],
            "desc": "Leather shell with fabric inner liner"
        },
        "C": {
            "code": "C",
            "avg": 6.59,
            "vals": [
                "7.75",
                "6.11",
                "6.66",
                "7.42",
                "5.97",
                "5.61"
            ],
            "desc": "Leather patch over leather shell with fabric inner liner"
        }
    },
    "abrasion": {
        "rating": 7.0,
        "result": 3.65
    },
    "impact": {
        "rating": 1.0,
        "result": 0.0
    },
    "file": "reports/G20L59__Speed__and__Strength__Rust__and__Redemption__Leather__Glove.txt"
}