{
    "head": {
        " ": "High risk of a",
        "Brand": "RST",
        "Model": "Paragon 5",
        "Type": "Glove - Leather",
        "Date purchased": "25 May 2021",
        "Sizes tested": "M and L",
        "Test glove gender": "Male",
        "Style": "All Purpose",
        "RRP": "$169.00",
        "Rating": "Score",
        "MotoCAP Protection Rating": "\u2605\u2605\u2605\u2605          4.4",
        "Abrasion": "10/10      6.60",
        "Seam strength": "7/10      10.2",
        "Impact": "3/10       6.5",
        "Water resistance": "10/10       1.1",
        "Knuckles": "\uf0fc",
        "Zone 1": "Zone 2                       Zone 3",
        "High risk of impact": "High risk of abrasion     Medium risk of abrasion"
    },
    "materials": {
        "A": {
            "code": "A",
            "avg": 10.0,
            "vals": [
                "10.00",
                "10.00",
                "10.00",
                "10.00",
                "10.00",
                "10.00"
            ],
            "desc": "Hard-shell armour over leather shell, water-resistance layer, foam layer and fabric inner liner"
        },
        "B": {
            "code": "B",
            "avg": 2.57,
            "vals": [
                "3.44",
                "2.07",
                "2.28",
                "1.72",
                "2.69",
                "3.22"
            ],
            "desc": "Leather shell, water-resistance layer, foam layer and fabric inner liner"
        },
        "C": {
            "code": "C",
            "avg": 9.63,
            "vals": [
                "11.14",
                "8.91",
                "10.92",
                "5.07",
                "12.11"
            ],
            "desc": "Leather patch over leather shell, water-resistance layer, foam layer and fabric inner liner"
        },
        "D": {
            "code": "D",
            "avg": 1.98,
            "vals": [
                "1.40",
                "3.55",
                "1.06",
                "0.84",
                "3.66",
                "1.36"
            ],
            "desc": "Woven fabric shell, water-resistance layer, foam layer and fabric inner liner"
        }
    },
    "abrasion": {
        "rating": 10.0,
        "result": 6.6
    },
    "impact": {
        "rating": 3.0,
        "result": 6.5
    },
    "file": "reports/G20L35__RST__Paragon__5__Leather__Glove.txt"
}