{
    "head": {
        " ": "",
        "Brand": "Ixon",
        "Model": "RS Slicker ladies",
        "Type": "Glove - Textile",
        "Date purchased": "16 May 2022",
        "Sizes tested": "XL and 2XL",
        "Test glove gender": "Female",
        "Style": "All Purpose",
        "RRP": "$54.95",
        "Rating": "Score",
        "MotoCAP Protection Rating": "\u2be8           0.7",
        "Abrasion": "1/10        0.70",
        "Seam strength": "1/10         2.6",
        "Impact": "1/10         2.4",
        "Water resistance": "N/A          N/A",
        "Knuckles": "\uf0fc",
        "Zone 1": "Zone 2                       Zone 3",
        "High risk of impact": "High risk of abrasion     Medium risk of abrasion"
    },
    "materials": {
        "A": {
            "code": "A",
            "avg": 10.0,
            "vals": [
                "10.00",
                "10.00",
                "10.00",
                "10.00",
                "10.00",
                "10.00"
            ],
            "desc": "Woven fabric shell over hard-shell armour"
        },
        "B": {
            "code": "B",
            "avg": 0.4,
            "vals": [
                "0.13",
                "0.69",
                "0.79",
                "0.36",
                "0.02"
            ],
            "desc": "Suede layer with fabric inner liner"
        },
        "C": {
            "code": "C",
            "avg": 2.57,
            "vals": [
                "2.41",
                "1.95",
                "2.12",
                "4.18",
                "2.37",
                "2.42"
            ],
            "desc": "Suede patch on suede layer with fabric iner liner"
        },
        "D": {
            "code": "D",
            "avg": 0.58,
            "vals": [
                "0.68",
                "0.76",
                "0.34",
                "0.58",
                "0.57"
            ],
            "desc": "Mesh fabric layer with fabric inner liner"
        }
    },
    "abrasion": {
        "rating": 1.0,
        "result": 0.7
    },
    "impact": {
        "rating": 1.0,
        "result": 2.4
    },
    "file": "reports/G21L01__-__Ixon__RS__Slicker__Ladies__Textile__Glove.txt"
}