{
    "head": {
        " ": "High risk of abrasion",
        "Brand": "Rev'It",
        "Model": "Fly 3",
        "Type": "Glove - Leather",
        "Date purchased": "9 January 2023",
        "Sizes tested": "S, XL and 2XL",
        "Test glove gender": "Male",
        "Style": "All Purpose",
        "RRP": "$148.95",
        "Rating": "Score",
        "MotoCAP Protection Rating": "\u2605\u2605          4.1",
        "Abrasion": "10/10      6.46",
        "Seam strength": "2/10       5.6",
        "Impact": "3/10       6.5",
        "Water resistance": "N/A        N/A",
        "Knuckles": "\uf0fc",
        "Palm": "\uf0fc",
        "Zone 1": "Zone 2                      Zone 3",
        "High risk of impact": "High risk of abrasion     Medium risk of abrasion"
    },
    "materials": {
        "A": {
            "code": "A",
            "avg": 10.0,
            "vals": [
                "10.00",
                "10.00",
                "10.00",
                "10.00",
                "10.00",
                "10.00"
            ],
            "desc": "Hard-shell armour over leather shell"
        },
        "B": {
            "code": "B",
            "avg": 8.92,
            "vals": [
                "9.41",
                "9.41",
                "8.46",
                "6.82",
                "8.81",
                "10.59"
            ],
            "desc": "Leather patch on perforated leather shell with fabric inner liner"
        },
        "C": {
            "code": "C",
            "avg": 3.24,
            "vals": [
                "3.33",
                "3.51",
                "3.49",
                "3.22",
                "3.04",
                "2.85"
            ],
            "desc": "Perforated leather shell"
        }
    },
    "abrasion": {
        "rating": 10.0,
        "result": 6.46
    },
    "impact": {
        "rating": 3.0,
        "result": 6.5
    },
    "file": "reports/G21L37__-__Rev_27It__Fly__3__Leather__Glove.txt"
}