{
    "head": {
        " ": "High risk of ab",
        "Brand": "Klim",
        "Model": "Adventure GTX Short",
        "Type": "Glove - Leather",
        "Date purchased": "12 September 2022",
        "Sizes tested": "XL, 2XL and L",
        "Test glove gender": "Male",
        "Style": "All Purpose",
        "RRP": "$309.95",
        "Rating": "Score",
        "MotoCAP Protection Rating": "\u2605\u2605\u2605\u2605           4.5",
        "Abrasion": "10/10       6.02",
        "Seam strength": "10/10       18.0",
        "Impact": "5/10        8.0",
        "Water resistance": "10/10        0.2",
        "Knuckles": "\u2713",
        "Palm": "\u2713",
        "Zone 1": "Zone 2                       Zone 3",
        "High risk of impact": "High risk of abrasion     Medium risk of abrasion"
    },
    "materials": {
        "A": {
            "code": "A",
            "avg": 10.0,
            "vals": [
                "10.00",
                "10.00",
                "10.00",
                "10.00",
                "10.00",
                "10.00"
            ],
            "desc": "Hard-shell armour, foam layer, woven fabric shell, water-resistant layer and fabric inner liner"
        },
        "B": {
            "code": "B",
            "avg": 4.07,
            "vals": [
                "3.83",
                "3.50",
                "3.60",
                "4.72",
                "5.16",
                "3.62"
            ],
            "desc": "Leather shell, water-resistant layer and fabric inner liner"
        },
        "C": {
            "code": "C",
            "avg": 2.74,
            "vals": [
                "2.06",
                "2.35",
                "3.76",
                "2.60",
                "2.10",
                "3.59"
            ],
            "desc": "Woven fabric shell, water-resistant layer and fabric inner liner"
        }
    },
    "abrasion": {
        "rating": 10.0,
        "result": 6.02
    },
    "impact": {
        "rating": 5.0,
        "result": 8.0
    },
    "file": "reports/G21L26__Klim__Adventure__GTX__Short__Leather__Glove.txt"
}