{
    "head": {
        " ": "Rhino Leather Healy",
        "Brand": "Rhino Leather",
        "Model": "Healy",
        "Type": "Glove - Leather",
        "Date purchased": "5 May 2023",
        "Sizes tested": "L, 2XL and 3XL",
        "Test glove gender": "Male",
        "Style": "All Purpose",
        "RRP": "$99.99",
        "Rating": "Score",
        "MotoCAP Protection Rating": "\u2605\u2605           4.1",
        "Abrasion": "10/10       7.33",
        "Seam strength": "7/10       10.0",
        "Impact": "1/10        0.0",
        "Water resistance": "10/10        0.0",
        "Knuckles": "\u2713",
        "Palm": "\u2713",
        "Zone 1": "Zone 2                      Zone 3",
        "High risk of impact": "High risk of abrasion     Medium risk of abrasion"
    },
    "materials": {
        "A": {
            "code": "A",
            "avg": 10.0,
            "vals": [
                "10.00",
                "10.00",
                "10.00",
                "10.00",
                "10.00",
                "10.00"
            ],
            "desc": "Hard-shell armour over foam layer, water-resistant layer and mesh inner liner"
        },
        "B": {
            "code": "B",
            "avg": 9.04,
            "vals": [
                "8.76",
                "10.88",
                "9.72",
                "9.02",
                "5.90",
                "9.99"
            ],
            "desc": "Leather patch over leather shell, water-resistant layer and mesh inner liner"
        },
        "C": {
            "code": "C",
            "avg": 3.98,
            "vals": [
                "4.54",
                "3.95",
                "9.10",
                "1.69",
                "1.96",
                "2.65"
            ],
            "desc": "Leather shell, water-resistant layer and mesh inner liner"
        }
    },
    "abrasion": {
        "rating": 10.0,
        "result": 7.33
    },
    "impact": {
        "rating": 1.0,
        "result": 0.0
    },
    "file": "reports/G23L18__-__Rhino__Leather__Healy__Leather__Glove.txt"
}