                                                          This MotoCAP safety rating applies to:
                                                          Brand:                   Held
                                                          Model:                   Hamada
                                                          Type:                    Glove - Leather
                                                          Date purchased:          20 February 2023
                                                          Sizes tested:            XL, 2XL and 3XL
                                                          Test glove gender:       Male
                                                          Style:                   All Purpose
                                                          RRP:                     $145.00
                                                          Test Results Summary:
                                                                                         Rating       Score
                                                          MotoCAP Protection Rating        ★           1.9
                                                          Abrasion                        2/10        1.47
                                                          Seam strength                   6/10         9.7
                                                          Impact                          4/10         7.6
                                                          Water resistance                N/A          N/A
This glove is fitted with impact protectors for the knuckles and palm areas. There is no provision for
ventilation to allow airflow movement through the glove.




Gloves - Crash Impact Risk Zones
This diagram is a pictorial representation of the crash impact risk Zones.




                                                                        Impact protection
                                                                        Knuckles         
                                                                        Palm             




              Zone 1                    Zone 2                      Zone 3

       High risk of impact       High risk of abrasion     Medium risk of abrasion
      High risk of abrasion


                                                 Held Hamada
Page 1 of 5                                      Leather Glove                                   motocap.com.au
Abrasion Resistance
The gloves were tested for abrasion resistance in accordance with MotoCAP test protocols. The diagram
below is a visual indication of the likely abrasion performance of the materials in each Zone calculated
from the data in the table below. The colour coding is based on the worst performing material in each
zone.




                                                                  Abrasion Resistance Performance
                                                                  Abrasion rating     2/10
                                                                  Abrasion score      1.47




Determining Criteria   Area            Good       Acceptable    Marginal       Poor
High abrasion risk     Zone 1 & 2      > 4.0       2.7 - 4.0    1.2 - 2.6      < 1.2
Medium abrasion risk   Zone 3           2.5        1.8 - 2.5    0.8 - 1.7      < 0.8


Individual Abrasion Resistance Results: - The table below shows the test results for time to abrade
through all layers of the materials. Calculated for each sample by Zone, type and area coverage of each
material as a proportion of that Zone. Abrasion times are capped at a maximum of 10.00s.
Abrasion time for each test (seconds)
Zones 1          Coverage (%) Sample 1 Sample 2 Sample 3 Sample 4 Sample 5 Sample 6           Average
Material A       40%             10.00  10.00    10.00    10.00    10.00    10.00              10.00       G
Material B       60%              0.62   1.64     0.58     1.15     1.14     2.11               1.21       M
Zone 2           Coverage (%) Sample 1 Sample 2 Sample 3 Sample 4 Sample 5 Sample 6           Average
Material C       25%              3.51   3.08     4.90     3.27     3.33     3.79               3.65       A
Material B       75%              0.62   1.64     0.58     1.15     1.14     2.11               1.21       M
Zone 3           Coverage (%) Sample 1 Sample 2 Sample 3 Sample 4 Sample 5 Sample 6           Average
Material C       7%               3.51   3.08     4.90     3.27     3.33     3.79               3.65       G
Material D       93%              0.54   0.28     0.26     0.89     1.03     1.67               0.78       P
Details of materials used in glove - derived from manufacturer provided information
Material A      Stretch fabric shell over hard-shell armour
Material B      Leather shell
Material C      Leather patch over leather shell
Material D      Stretch fabric shell with mesh inner liner




                                               Held Hamada
Page 2 of 5                                    Leather Glove                                motocap.com.au
Seam Tensile Strength
The tensile strength of the gloves seams and glove restraint (the force required to drag off a properly
fastened glove) were tested in accordance with MotoCAP test protocols. The diagram below illustrates
the tensile strength and wrist restraint results in terms of the likely performance of the glove in a crash
and is a pictorial representation of the data from the tables below.




                                                                                   Seam Strength Performance
                                                                                   Seam strength rating 6/10
                                                                                   Seam strength score   9.7




Determining Criteria        Unit             Good        Acceptable          Marginal           Poor
Seam tensile strength       (N/mm)           > 11          9 - 11            6 - 8.9            <6
Glove restraint             (N)              > 200       100 - 200           50 - 99            <50

Individual Seam Strength Results: - The table below shows the seam tensile strength in newtons per
millimeter (N/mm) for each seam tested by Zone and the average result for each Zone.
Seam tensile strength (N/mm)
Area                    1            2               3                4                 5              Average
Zones 1 & 2             13.39        10.34           11.38            26.30             20.30          16.34       G
Zone 3                  13.77        7.90            5.09             5.56              7.53           7.97        M
Individual Glove Restraint Results: - The table below shows the force required to remove the restrained
glove in newtons (N) for each of the five gloves tested and the average result.
Glove restraint (N)
Glove                   1            2               3                4                 5              Average
Wrist restraint         79.9         148.0           72.3             218.9             229.3          149.7       A




                                                     Held Hamada
Page 3 of 5                                          Leather Glove                                             motocap.com.au
Impact Protection
The glove was tested for impact protection and coverage In accordance with MotoCAP test protocols. The
diagram below is a visual indication of the likely performance of each impact protector calculated from
the data in the table below. The colour coding is based on the worst performing score for average or
maximum force for each impact zone. Areas shaded black are not considered in the impact protection
ratings.




                                                                                  Impact Protection Performance
                                                                                  Impact rating   4/10
                                                                                  Impact score     7.6




Determining Criteria                     Unit           Good         Acceptable          Marginal         Poor
Impact force                             (kN)            <2           2 - 4.9             5-8             >8
* Poor may also indicate that no impact protector is present in the glove


Impact Protector Results: - The table below shows the test results for each strike on each impact
protector in kilonewtons (kN) and their area of coverage in percentage (%) within the Zone. Impact forces
are capped at a maximum of 10.0kN.
Impact protector type                       Knuckles                     Palm
Average force (kN)                            1.5        G                7.1        M
Maximum force (kN)                            2.0        G                7.6        M
Coverage of zone 1 area                      100%                        20%

Individual test results: - The table below shows the test results for each strike on each impact protector in
kilonewtons (kN) and the position of the strike. Impact forces are capped at a maximum of 10.0kN.
Impact protector type       Knuckles                                              Palm
Strike number                  1                2              3                   1                2
Impact Protector 1              1.5             1.5            1.3                 6.4              7.6
Impact Protector 2              1.5             2.0            1.3                 7.3              7.5
Impact Protector 3              1.3             1.8            1.7                 6.5              7.3




                                                      Held Hamada
Page 4 of 5                                           Leather Glove                                         motocap.com.au
Water spray and rain resistance
This glove has not been advertised as water resistant so has not been tested for water spray and rain
resistance.




   Assessment Details.
   Brand                         Held
   Model                         Hamada
   Type                          Glove - Leather
   Date purchased                20 February 2023
   Tested by                     AMCAF, Deakin University
   Report approved by            MotoCAP Chief Scientist
   Garment test reference        G23L08
   Rating first published        August 2023
   Rating updated                23 August 2023


                                               Held Hamada
Page 5 of 5                                    Leather Glove                                motocap.com.au
