{
    "head": {
        " ": "Octane Blast Winter",
        "Brand": "Octane",
        "Model": "Blast Winter",
        "Type": "Glove - Leather",
        "Date purchased": "20 February 2023",
        "Sizes tested": "XL",
        "Test glove gender": "Male",
        "Style": "All Purpose",
        "RRP": "$139.00",
        "Rating": "Score",
        "MotoCAP Protection Rating": "\u2605\u2605            3.2",
        "Abrasion": "10/10        5.78",
        "Seam strength": "1/10         4.1",
        "Impact": "1/10         1.3",
        "Water resistance": "10/10         0.3",
        "Knuckles": "\uf0fc",
        "Zone 1": "Zone 2                      Zone 3",
        "High risk of impact": "High risk of abrasion     Medium risk of abrasion"
    },
    "materials": {
        "A": {
            "code": "A",
            "avg": 10.0,
            "vals": [
                "10.00",
                "10.00",
                "10.00",
                "10.00",
                "10.00",
                "10.00"
            ],
            "desc": "Leather shell over hard-shell armour, foam layer, water-resistant layer and foam inner layer"
        },
        "B": {
            "code": "B",
            "avg": 3.65,
            "vals": [
                "2.49",
                "2.39",
                "8.75",
                "3.90",
                "1.44",
                "2.90"
            ],
            "desc": "Leather shell, foam layer, water-resistant layer and foam inner layer"
        },
        "C": {
            "code": "C",
            "avg": 8.12,
            "vals": [
                "13.07",
                "10.85",
                "6.09",
                "6.32",
                "6.10",
                "6.27"
            ],
            "desc": "Leather patch over leather shell, foam layer, water-resistant layer and foam inner layer"
        }
    },
    "abrasion": {
        "rating": 10.0,
        "result": 5.78
    },
    "impact": {
        "rating": 1.0,
        "result": 1.3
    },
    "file": "reports/G23L05__-__Octane__Blast__Winter__Leather__Glove.txt"
}