{
    "head": {
        " ": "X-Treme Storm",
        "Brand": "X-Treme",
        "Model": "Storm",
        "Type": "Glove - Leather",
        "Date purchased": "1 June 2023",
        "Sizes tested": "XL,2XL,",
        "Test glove gender": "Male",
        "Style": "All Purpose",
        "RRP": "$85.00",
        "Rating": "Score",
        "MotoCAP Protection Rating": "\u2605\u2605          3.7",
        "Abrasion": "10/10      5.55",
        "Seam strength": "1/10       3.7",
        "Impact": "4/10       7.4",
        "Water resistance": "10/10       0.6",
        "Knuckles": "\uf0fc",
        "Zone 1": "Zone 2                      Zone 3",
        "High risk of impact": "High risk of abrasion     Medium risk of abrasion"
    },
    "materials": {
        "A": {
            "code": "A",
            "avg": 10.0,
            "vals": [
                "10.00",
                "10.00",
                "10.00",
                "10.00",
                "10.00",
                "10.00"
            ],
            "desc": "Hard-shell armour, foam layer, water-resistant layer, foam and mesh inner liner"
        },
        "B": {
            "code": "B",
            "avg": 3.73,
            "vals": [
                "4.31",
                "3.66",
                "2.35",
                "3.55",
                "4.46",
                "4.04"
            ],
            "desc": "Leather shell, foam layer, water-resistant layer, foam and mesh inner liner"
        },
        "C": {
            "code": "C",
            "avg": 8.86,
            "vals": [
                "12.88",
                "10.63",
                "9.14",
                "6.35",
                "8.13",
                "6.02"
            ],
            "desc": "Leather patch over leather shell, foam layer, water-resistant layer, foam and mesh inner liner"
        }
    },
    "abrasion": {
        "rating": 10.0,
        "result": 5.55
    },
    "impact": {
        "rating": 4.0,
        "result": 7.4
    },
    "file": "reports/G23L31__-__X-Treme__Storm__Leather__Glove.txt"
}