{
    "head": {
        " ": "Dririder Air",
        "Brand": "Dririder",
        "Model": "Air-Ride 2",
        "Type": "Glove - Leather",
        "Date purchased": "3 April 2023",
        "Sizes tested": "L and 2XL",
        "Test glove gender": "Male",
        "Style": "All Purpose",
        "RRP": "$99.95",
        "Rating": "Score",
        "MotoCAP Protection Rating": "\u2605           1.5",
        "Abrasion": "2/10        1.31",
        "Seam strength": "1/10         1.2",
        "Impact": "4/10         7.5",
        "Water resistance": "N/A          N/A",
        "Knuckles": "\uf0fc",
        "Zone 1": "Zone 2                      Zone 3",
        "High risk of impact": "High risk of abrasion     Medium risk of abrasion"
    },
    "materials": {
        "A": {
            "code": "A",
            "avg": 10.0,
            "vals": [
                "10.00",
                "10.00",
                "10.00",
                "10.00",
                "10.00",
                "10.00"
            ],
            "desc": "Hard-shell armour over leather shell"
        },
        "B": {
            "code": "B",
            "avg": 1.01,
            "vals": [
                "1.63",
                "0.11",
                "0.93",
                "0.10",
                "1.44",
                "1.84"
            ],
            "desc": "Leather shell"
        },
        "C": {
            "code": "C",
            "avg": 5.2,
            "vals": [
                "8.98",
                "6.10",
                "3.50",
                "5.61",
                "3.19",
                "3.81"
            ],
            "desc": "Leather patch over leather shell"
        },
        "D": {
            "code": "D",
            "avg": 0.57,
            "vals": [
                "0.17",
                "1.07",
                "1.27",
                "0.17",
                "0.64",
                "0.10"
            ],
            "desc": "Mesh fabric shell, foam layer and fabric inner liner"
        }
    },
    "abrasion": {
        "rating": 2.0,
        "result": 1.31
    },
    "impact": {
        "rating": 4.0,
        "result": 7.5
    },
    "file": "reports/G23L16__-__Dririder__Air-Ride__2__Leather__Glove.txt"
}