{
    "head": {
        " ": "1Tonne Waterproof Chief Winter",
        "Brand": "1TONNE",
        "Model": "Waterproof Chief Winter",
        "Type": "Glove - Leather",
        "Date purchased": "22 May 2023",
        "Sizes tested": "XL,2XL",
        "Test glove gender": "Male",
        "Style": "All Purpose",
        "RRP": "$69.00",
        "Rating": "Score",
        "MotoCAP Protection Rating": "\u2605          1.7",
        "Abrasion": "5/10      2.93",
        "Seam strength": "1/10       2.9",
        "Impact": "1/10       1.6",
        "Water resistance": "10/10       0.0",
        "Knuckles": "\uf0fc",
        "Zone 1": "Zone 2                      Zone 3",
        "High risk of impact": "High risk of abrasion     Medium risk of abrasion"
    },
    "materials": {
        "A": {
            "code": "A",
            "avg": 7.11,
            "vals": [
                "6.50",
                "7.76",
                "5.44",
                "5.99",
                "8.13",
                "8.86"
            ],
            "desc": "Leather shell, foam layer, cushion, water-resistant layer, foam layer and mesh inner liner"
        },
        "B": {
            "code": "B",
            "avg": 2.36,
            "vals": [
                "1.97",
                "2.50",
                "2.08",
                "0.44",
                "2.48",
                "4.68"
            ],
            "desc": "Leather shell, water-resistant layer, foam and mesh inner liner"
        },
        "C": {
            "code": "C",
            "avg": 5.47,
            "vals": [
                "6.01",
                "7.57",
                "5.25",
                "4.97",
                "4.80",
                "4.23"
            ],
            "desc": "Leather patch over leather shell, water-resistant layer, foam layer and mesh inner liner"
        }
    },
    "abrasion": {
        "rating": 5.0,
        "result": 2.93
    },
    "impact": {
        "rating": 1.0,
        "result": 1.6
    },
    "file": "reports/G23L26__-__1Tonne__Waterproof__Chief__Winter__Leather__Glove.txt"
}