{
    "head": {
        " ": "Palm",
        "Brand": "Merlin",
        "Model": "Ranton 2 Wax",
        "Type": "Glove - Leather",
        "Date purchased": "22 November 2023",
        "Sizes tested": "L, XL, and XXL",
        "Test glove gender": "Male",
        "Style": "All Purpose",
        "RRP": "$129.95",
        "Rating": "Score",
        "MotoCAP Protection Rating": "\u2605\u2605            4.7",
        "Abrasion": "10/10        7.50",
        "Seam strength": "1/10         1.8",
        "Impact": "5/10         8.5",
        "Water resistance": "7/10         5.2",
        "Knuckles": "\uf0fc",
        "Zone 1": "Zone 2                       Zone 3",
        "High risk of impact": "High risk of abrasion     Medium risk of abrasi"
    },
    "materials": {
        "A": {
            "code": "A",
            "avg": 10.0,
            "vals": [
                "10.00",
                "10.00",
                "10.00",
                "10.00",
                "10.00",
                "10.00"
            ]
        },
        "B": {
            "code": "B",
            "avg": 6.79,
            "vals": [
                "5.80",
                "6.23",
                "4.06",
                "4.92",
                "6.36",
                "13.35"
            ],
            "desc": "Leather shell , water-resistant layer, foam and fabric inner liner"
        },
        "C": {
            "code": "C",
            "avg": 7.95,
            "vals": [
                "6.38",
                "12.55",
                "9.21",
                "8.27",
                "6.47",
                "4.85"
            ]
        },
        "D": {
            "code": "D",
            "avg": 2.79,
            "vals": [
                "2.08",
                "4.46",
                "2.38",
                "2.58",
                "4.21",
                "1.00"
            ],
            "desc": "Woven fabric shell , water-resistant layer, foam and fabric inner liner"
        }
    },
    "abrasion": {
        "rating": 10.0,
        "result": 7.5
    },
    "impact": {
        "rating": 5.0,
        "result": 8.5
    },
    "file": "reports/G24L12__Merlin__Ranton__2__Wax__Leather__Glove.txt"
}