{
    "head": {
        " ": "High risk ",
        "Brand": "Klim",
        "Model": "Vanguard GTX Long Glove",
        "Type": "Glove - Leather",
        "Date purchased": "22 September 2023",
        "Sizes tested": "XL, 2XL and 3XL",
        "Test glove gender": "Male and Female",
        "Style": "Tourer",
        "RRP": "$309.95",
        "Rating": "Score",
        "MotoCAP Protection Rating": "\u2605\u2605\u2605\u2605          4.5",
        "Abrasion": "10/10      5.28",
        "Seam strength": "8/10      11.2",
        "Impact": "8/10      13.9",
        "Water resistance": "10/10       0.0",
        "Knuckles": "\uf0fc",
        "Palm": "\uf0fc",
        "Zone 1": "Zone 2                       Zone 3",
        "High risk of impact": "High risk of abrasion     Medium risk of abrasion"
    },
    "materials": {
        "A": {
            "code": "A",
            "avg": 10.0,
            "vals": [
                "10.00",
                "10.00",
                "10.00",
                "10.00",
                "10.00",
                "10.00"
            ]
        },
        "B": {
            "code": "B",
            "avg": 4.33,
            "vals": [
                "3.53",
                "3.56",
                "4.66",
                "4.44",
                "4.91",
                "4.87"
            ],
            "desc": "Leather shell, water-resistant layer, fibre filler layer and woven fabric inner liner"
        },
        "C": {
            "code": "C",
            "avg": 1.79,
            "vals": [
                "1.20",
                "1.36",
                "0.80",
                "3.83",
                "0.77",
                "2.77"
            ],
            "desc": "Woven fabric shell, water-resistant layer, fibre filler layer and woven fabric inner liner"
        }
    },
    "abrasion": {
        "rating": 10.0,
        "result": 5.28
    },
    "impact": {
        "rating": 8.0,
        "result": 13.9
    },
    "file": "reports/G24L05__Klim__Vanguard__GTX__Long__Glove__Leather__Glove.txt"
}