{
    "head": {
        " ": "High risk of abrasion",
        "Brand": "Ixon",
        "Model": "RS Tempo Air",
        "Type": "Glove - Leather",
        "Date purchased": "19 August 2023",
        "Sizes tested": "L, XL and 2XL",
        "Test glove gender": "Male",
        "Style": "Sports",
        "RRP": "$139.95",
        "Rating": "Score",
        "MotoCAP Protection Rating": "\u2605\u2605          2.6",
        "Abrasion": "5/10       2.55",
        "Seam strength": "6/10        9.8",
        "Impact": "5/10        9.8",
        "Water resistance": "N/A         N/A",
        "Knuckles": "\uf0fc",
        "Palm": "\uf0fc",
        "Zone 1": "Zone 2                       Zone 3",
        "High risk of impact": "High risk of abrasion     Medium risk of abrasion"
    },
    "materials": {
        "A": {
            "code": "A",
            "avg": 10.0,
            "vals": [
                "10.00",
                "10.00",
                "10.00",
                "10.00",
                "10.00",
                "10.00"
            ],
            "desc": "Hard-shell armour over leather shell"
        },
        "B": {
            "code": "B",
            "avg": 1.38,
            "vals": [
                "1.84",
                "0.05",
                "1.75",
                "0.36",
                "2.68",
                "1.57"
            ],
            "desc": "Perforated leather shell with mesh inner liner"
        },
        "C": {
            "code": "C",
            "avg": 4.41,
            "vals": [
                "4.19",
                "3.79",
                "6.74",
                "2.78",
                "3.93",
                "5.04"
            ],
            "desc": "Leather patch over perforated leather shell with mesh inner liner"
        }
    },
    "abrasion": {
        "rating": 5.0,
        "result": 2.55
    },
    "impact": {
        "rating": 5.0,
        "result": 9.8
    },
    "file": "reports/G24L04__Ixon__RS__Tempo__Air__Leather__Glove.txt"
}