{
    "head": {
        " ": "",
        "Brand": "Argon",
        "Model": "Rush",
        "Type": "Glove - Leather",
        "Date purchased": "13 March 2024",
        "Sizes tested": "L, XL and 2XL",
        "Test glove gender": "Male",
        "Style": "All Purpose",
        "RRP": "$99.95",
        "Rating": "Score",
        "MotoCAP Protection Rating": "\u2605\u2605\u2605          3.9",
        "Abrasion": "10/10      5.51",
        "Seam strength": "3/10       6.1",
        "Impact": "5/10       9.1",
        "Water resistance": "N/A        N/A",
        "Knuckles": "\uf0fc",
        "Palm": "\uf0fc",
        "Zone 1": "Zone 2                       Zone 3",
        "High risk of impact": "High risk of abrasion     Medium risk of abrasion"
    },
    "materials": {
        "A": {
            "code": "A",
            "avg": 10.0,
            "vals": [
                "10.00",
                "10.00",
                "10.00",
                "10.00",
                "10.00",
                "10.00"
            ],
            "desc": "Hard-shell armour over leather shell"
        },
        "C": {
            "code": "C",
            "avg": 2.62,
            "vals": [
                "2.43",
                "5.12",
                "2.03",
                "2.63",
                "0.94",
                "2.57"
            ],
            "desc": "Leather shell with fabric inner liner"
        },
        "B": {
            "code": "B",
            "avg": 8.77,
            "vals": [
                "6.55",
                "8.37",
                "9.48",
                "8.22",
                "10.04",
                "10.00"
            ],
            "desc": "Leather patch over leather shell with fabric inner liner"
        }
    },
    "abrasion": {
        "rating": 10.0,
        "result": 5.51
    },
    "impact": {
        "rating": 5.0,
        "result": 9.1
    },
    "file": "reports/G24L31__-__Argon__Rush__Leather__Glove.txt"
}