{
    "head": {
        " ": "Palm",
        "Brand": "Rjays",
        "Model": "Pilot",
        "Type": "Glove - Leather",
        "Date purchased": "22 September 2023",
        "Sizes tested": "L, XL and 2XL",
        "Test glove gender": "Male and Female",
        "Style": "All Purpose",
        "RRP": "$99.95",
        "Rating": "Score",
        "MotoCAP Protection Rating": "\u2605          2.0",
        "Abrasion": "5/10       2.54",
        "Seam strength": "2/10        5.6",
        "Impact": "2/10        4.8",
        "Water resistance": "N/A         N/A",
        "Knuckles": "\uf0fc",
        "Zone 1": "Zone 2                       Zone 3",
        "High risk of impact": "High risk of abrasion     Medium risk of "
    },
    "materials": {
        "A": {
            "code": "A",
            "avg": 10.0,
            "vals": [
                "10.00",
                "10.00",
                "10.00",
                "10.00",
                "10.00",
                "10.00"
            ],
            "desc": "Leather shell over hard-shell armour"
        },
        "B": {
            "code": "B",
            "avg": 1.46,
            "vals": [
                "1.24",
                "0.99",
                "0.86",
                "1.65",
                "2.73",
                "1.29"
            ],
            "desc": "Leather shell with mesh inner liner"
        },
        "C": {
            "code": "C",
            "avg": 6.69,
            "vals": [
                "5.09",
                "7.35",
                "6.16",
                "7.63",
                "1.54",
                "12.38"
            ],
            "desc": "Leather shell, foam layer, fabric layer and mesh inner liner"
        }
    },
    "abrasion": {
        "rating": 5.0,
        "result": 2.54
    },
    "impact": {
        "rating": 2.0,
        "result": 4.8
    },
    "file": "reports/G24L10__Rjays__Pilot__Leather__Glove.txt"
}