{
    "head": {
        " ": "Test Results Summary:",
        "Brand": "Dainese",
        "Model": "D-Blizzard D-Dry",
        "Type": "Jacket - Textile",
        "Date purchased": "11 August 2018",
        "Sizes tested": "XL",
        "Gender": "M",
        "Style": "Tourer",
        "Test code": "J18T04",
        "Rating": "Score",
        "MotoCAP Protection Rating": "\uf0ea          26.6",
        "Abrasion": "1/10        0.91",
        "Burst": "10/10       1171",
        "Impact": "5/10        34.5",
        "MotoCAP Comfort Rating": "\u2be8         0.140",
        "Moisture vapour resistance": "140.1",
        "Thermal Resistance": "0.327",
        "Water resistance": "\u2be8           43"
    },
    "materials": {
        "A": {
            "code": "A",
            "desc": "Course weave polyester shell with water resistant layer and mesh liner",
            "avg": 1.48,
            "vals": [
                "1.19",
                "1.81",
                "1.18",
                "1.91",
                "1.50",
                "1.28"
            ]
        },
        "B": {
            "code": "B",
            "desc": "Fine weave polyester shell with water resistant layer and mesh liner",
            "avg": 0.69,
            "vals": [
                "0.67",
                "0.41",
                "1.22",
                "0.78",
                "0.41",
                "0.66"
            ]
        }
    },
    "abrasion": {
        "rating": 1.0,
        "result": 0.91
    },
    "burst": {
        "rating": 10.0,
        "result": 1171.0
    },
    "impact": {
        "rating": 5.0,
        "result": 34.5
    },
    "thermal_resistance": 0.327,
    "file": "reports/J18T04__Dainese__D__Blizard__D__Dry.txt"
}