{
    "head": {
        " ": "Test Results Summary:",
        "Brand": "Ixon",
        "Model": "Copper Slick",
        "Type": "Jacket - Leather",
        "Date purchased": "20 January 2019",
        "Sizes tested": "XL",
        "Gender": "M",
        "Style": "All Purpose",
        "Test code": "J19L01",
        "Rating": "Score",
        "MotoCAP Protection Rating": "\uf0ea\uf0ea\uf0ea          52.7",
        "Abrasion": "6/10        4.41",
        "Burst": "10/10       1393",
        "Impact": "8/10        55.6",
        "MotoCAP Comfort Rating": "\uf0ea\uf0ea         0.301",
        "Moisture Vapour Resistance": "114.3",
        "Thermal Resistance": "0.573",
        "Water resistance": "N/A         N/A"
    },
    "materials": {
        "A": {
            "code": "A",
            "desc": "Leather shell, second leather layer, foam layer and mesh inner liner",
            "avg": 10.0,
            "vals": [
                "10.00",
                "10.00",
                "10.00",
                "10.00"
            ]
        },
        "B": {
            "code": "B",
            "desc": "Leather shell and mesh inner liner",
            "avg": 3.47,
            "vals": [
                "3.82",
                "3.79",
                "4.08",
                "2.37",
                "2.95",
                "3.77"
            ]
        }
    },
    "abrasion": {
        "rating": 6.0,
        "result": 4.41
    },
    "burst": {
        "rating": 10.0,
        "result": 1393.0
    },
    "impact": {
        "rating": 8.0,
        "result": 55.6
    },
    "moisture_vapour_resistance": 114.3,
    "thermal_resistance": 0.573,
    "file": "reports/J19L01__Ixon__Copper__Slick__Leather__Jacket.txt"
}