{
    "head": {
        " ": "Test Results Summary:",
        "Brand": "Alpinestars",
        "Model": "SPX Airflow",
        "Type": "Jacket - Leather",
        "Date purchased": "16 November 2019",
        "Sizes tested": "54 and 60",
        "Gender": "M",
        "Style": "Sports",
        "Test code": "J19L36",
        "Rating": "Score",
        "MotoCAP Protection Rating": "\uf0ea\uf0ea           38.8",
        "Abrasion": "5/10        3.50",
        "Burst": "9/10        971",
        "Impact": "5/10        38.7",
        "MotoCAP Comfort Rating": "\uf0ea\uf0ea          0.317",
        "Moisture Vapour Resistance": "61.1",
        "Thermal Resistance": "0.322",
        "Water resistance": "N/A         N/A"
    },
    "materials": {
        "A": {
            "code": "A",
            "desc": "Leather shell with mesh inner liner",
            "avg": 5.38,
            "vals": [
                "5.33",
                "4.93",
                "3.69",
                "6.18",
                "5.65",
                "6.49"
            ]
        },
        "B": {
            "code": "B",
            "desc": "Stretch fabric shell with mesh inner liner",
            "avg": 1.1,
            "vals": [
                "1.10",
                "1.06",
                "1.20",
                "0.98",
                "1.15"
            ]
        },
        "C": {
            "code": "C",
            "desc": "Polyester fabric shell with mesh inner liner",
            "avg": 0.33,
            "vals": [
                "0.38",
                "0.36",
                "0.26",
                "0.41",
                "0.32",
                "0.25"
            ]
        }
    },
    "abrasion": {
        "rating": 5.0,
        "result": 3.5
    },
    "burst": {
        "rating": 9.0,
        "result": 971.0
    },
    "impact": {
        "rating": 5.0,
        "result": 38.7
    },
    "moisture_vapour_resistance": 61.1,
    "thermal_resistance": 0.322,
    "file": "reports/J19L36__Alpinestars__SPX__Airflow__Leather__Jacket.txt"
}