{
    "head": {
        " ": "Test Results Summary:",
        "Brand": "RST",
        "Model": "Isle of Man TT Hillberry",
        "Type": "Jacket - Leather",
        "Date purchased": "28 August 2019",
        "Sizes tested": "48 and 56",
        "Gender": "M",
        "Style": "Cruiser",
        "Test code": "J19L23",
        "Rating": "Score",
        "MotoCAP Protection Rating": "\uf0ea\uf0ea\uf0ea          54.4",
        "Abrasion": "8/10        5.85",
        "Burst": "10/10       1695",
        "Impact": "4/10        27.5",
        "MotoCAP Comfort Rating": "\uf0ea         0.199",
        "Moisture Vapour Resistance": "85.0",
        "Thermal Resistance": "0.281",
        "Water resistance": "N/A         N/A",
        "Zone 1": "Zone 2                      Zone 3                      Zone 4",
        "High risk of abrasion": "High risk of abrasi"
    },
    "materials": {
        "A": {
            "code": "A",
            "desc": "Quilted leather shell, quilted fabric layer and mesh inner liner",
            "avg": 8.14,
            "vals": [
                "5.98",
                "11.49",
                "7.73",
                "7.30",
                "8.76",
                "7.60"
            ]
        },
        "B": {
            "code": "B",
            "desc": "Leather shell with mesh inner liner",
            "avg": 2.4,
            "vals": [
                "2.32",
                "1.86",
                "2.37",
                "2.15",
                "2.67",
                "3.05"
            ]
        }
    },
    "abrasion": {
        "rating": 8.0,
        "result": 5.85
    },
    "burst": {
        "rating": 10.0,
        "result": 1695.0
    },
    "impact": {
        "rating": 4.0,
        "result": 27.5
    },
    "moisture_vapour_resistance": 85.0,
    "thermal_resistance": 0.281,
    "file": "reports/J19L23__RST__Isle__of__Man__TT__Hillberry__Leather__Jacket.txt"
}