{
    "head": {
        " ": "",
        "Brand": "Ducati",
        "Model": "Speed EVO C1",
        "Type": "Jacket - Leather",
        "Date purchased": "14 July 2020",
        "Sizes tested": "52 and 56",
        "Test garment gender": "Male",
        "Style": "Sports",
        "RRP": "$559.00",
        "Test Results Summary": "Rating         Score",
        "MotoCAP Protection Rating": "\u2605\u2605             38.9",
        "Abrasion": "5/10          3.55",
        "Burst": "10/10         1186",
        "Impact": "4/10          31.0",
        "MotoCAP Breathability Rating": "\u2be8            0.071",
        "Moisture Vapour Resistance": "-            162.3",
        "Thermal Resistance": "-            0.192",
        "Water resistance": "N/A            N/A"
    },
    "materials": {
        "A": {
            "code": "A",
            "avg": 3.7,
            "vals": [
                "3.91",
                "3.20",
                "3.20",
                "4.08",
                "3.39",
                "4.40"
            ],
            "desc": "Leather shell with mesh inner liner"
        },
        "B": {
            "code": "B",
            "avg": 1.27,
            "vals": [
                "1.43",
                "1.08",
                "1.28",
                "1.30"
            ],
            "desc": "Stretch fabric shell with mesh inner liner"
        }
    },
    "abrasion": {
        "rating": 5.0,
        "result": 3.55
    },
    "burst": {
        "rating": 10.0,
        "result": 1186.0
    },
    "impact": {
        "rating": 4.0,
        "result": 31.0
    },
    "moisture_vapour_resistance": "-            162.3",
    "thermal_resistance": "-            0.192",
    "file": "reports/J19L50__Ducati__Speed__EVO__C1__Leather__Jacket.txt"
}