{
    "head": {
        " ": "Test Results Summary:",
        "Brand": "Harley Davidson",
        "Model": "Command",
        "Type": "Jacket - Leather",
        "Date purchased": "20 January 2019",
        "Sizes tested": "L",
        "Gender": "M",
        "Style": "Cruiser",
        "Test code": "J19L04",
        "Rating": "Score",
        "MotoCAP Protection Rating": "\uf0ea          20.3",
        "Abrasion": "3/10        2.53",
        "Burst": "7/10        766",
        "Impact": "1/10         0.0",
        "MotoCAP Comfort Rating": "\uf0ea\uf0ea          0.378",
        "Moisture Vapour Resistance": "50.4",
        "Thermal Resistance": "0.317",
        "Water resistance": "N/A         N/A"
    },
    "materials": {
        "A": {
            "code": "A",
            "desc": "Leather shell and mesh inner liner",
            "avg": 2.53,
            "vals": [
                "2.72",
                "2.16",
                "3.31",
                "2.68",
                "2.55",
                "1.76"
            ]
        },
        "B": {
            "code": "B",
            "desc": "30%           Perforated strip was too narrow for test sample collection."
        }
    },
    "abrasion": {
        "rating": 3.0,
        "result": 2.53
    },
    "burst": {
        "rating": 7.0,
        "result": 766.0
    },
    "impact": {
        "rating": 1.0,
        "result": 0.0
    },
    "moisture_vapour_resistance": 50.4,
    "thermal_resistance": 0.317,
    "file": "reports/J19L04__Harley__Davidson__Command__Leather__Jacket.txt"
}