{
    "head": {
        " ": "Test Results Summary:",
        "Brand": "Harley Davidson",
        "Model": "Trenton",
        "Type": "Jacket - Textile",
        "Date purchased": "9 March 2020",
        "Sizes tested": "L",
        "Gender": "M",
        "Style": "Cruiser",
        "Test code": "J19T38",
        "Rating": "Score",
        "MotoCAP Protection Rating": "\u2be8          12.4",
        "Abrasion": "1/10        0.85",
        "Burst": "8/10        808",
        "Impact": "1/10         0.0",
        "MotoCAP Comfort Rating": "\uf0ea\uf0ea\uf0ea         0.415",
        "Moisture Vapour Resistance": "29.4",
        "Thermal Resistance": "0.203",
        "Water resistance": "N/A         N/A",
        "Zone 1": "Zone 2                      Zone 3                      Zone 4",
        "High risk of abrasion": ""
    },
    "materials": {
        "A": {
            "code": "A",
            "desc": "Quilted woven fabric shell with mesh inner liner",
            "avg": 1.16,
            "vals": [
                "1.04",
                "0.98",
                "1.24",
                "1.53",
                "1.00",
                "1.19"
            ]
        },
        "B": {
            "code": "B",
            "desc": "Mesh fabric shell with mesh inner liner",
            "avg": 0.27,
            "vals": [
                "0.28",
                "0.20",
                "0.24",
                "0.36",
                "0.34",
                "0.20"
            ]
        }
    },
    "abrasion": {
        "rating": 1.0,
        "result": 0.85
    },
    "burst": {
        "rating": 8.0,
        "result": 808.0
    },
    "impact": {
        "rating": 1.0,
        "result": 0.0
    },
    "moisture_vapour_resistance": 29.4,
    "thermal_resistance": 0.203,
    "file": "reports/J19T38__Harley__Davidson__Trenton__Textile__Jacket.txt"
}