{
    "head": {
        " ": "Test Results Summary:",
        "Brand": "Spidi",
        "Model": "Venture H2Out Ladies",
        "Type": "Jacket - Textile",
        "Date purchased": "13 May 2019",
        "Sizes tested": "XL and 2XL",
        "Gender": "F",
        "Style": "All Purpose",
        "Test code": "J19T16",
        "Rating": "Score",
        "MotoCAP Protection Rating": "\uf0ea          18.1",
        "Abrasion": "1/10        0.37",
        "Burst": "10/10       1029",
        "Impact": "3/10        20.0",
        "MotoCAP Comfort Rating": "\uf0ea         0.288",
        "Moisture Vapour Resistance": "48.0",
        "Thermal Resistance": "0.230",
        "Water resistance": "1/10        30.8"
    },
    "materials": {
        "A": {
            "code": "A",
            "desc": "Fabric shell with mesh inner liner",
            "avg": 0.37,
            "vals": [
                "0.41",
                "0.37",
                "0.33",
                "0.44",
                "0.38",
                "0.30"
            ]
        }
    },
    "abrasion": {
        "rating": 1.0,
        "result": 0.37
    },
    "burst": {
        "rating": 10.0,
        "result": 1029.0
    },
    "impact": {
        "rating": 3.0,
        "result": 20.0
    },
    "moisture_vapour_resistance": 48.0,
    "thermal_resistance": 0.23,
    "file": "reports/J19T16__Spidi__Venture__H2Out__Ladies__Textile__Jacket.txt"
}