{
    "head": {
        " ": "Test Results Summary:",
        "Brand": "Rev'It",
        "Model": "Horizon 2",
        "Type": "Jacket - Textile",
        "Date purchased": "19 March 2019",
        "Sizes tested": "L and 2XL",
        "Gender": "M&F",
        "Style": "Tourer",
        "Test code": "J19T11",
        "Rating": "Score",
        "MotoCAP Protection Rating": "\uf0ea\uf0ea           33.4",
        "Abrasion": "1/10        0.58",
        "Burst": "10/10       1227",
        "Impact": "8/10        60.8",
        "MotoCAP Comfort Rating": "\u2be8         0.146",
        "Moisture Vapour Resistance": "161.9",
        "Thermal Resistance": "0.395",
        "Water resistance": "1/10         29"
    },
    "materials": {
        "A": {
            "code": "A",
            "desc": "High density woven fabric shell, water resistant layer and mesh inner liner",
            "avg": 0.69,
            "vals": [
                "0.63",
                "0.65",
                "0.74",
                "0.78",
                "0.60",
                "0.74"
            ]
        },
        "B": {
            "code": "B",
            "desc": "Woven fabric shell, water resistant layer and mesh inner liner",
            "avg": 0.34,
            "vals": [
                "0.35",
                "0.27",
                "0.35",
                "0.34",
                "0.30",
                "0.43"
            ]
        }
    },
    "abrasion": {
        "rating": 1.0,
        "result": 0.58
    },
    "burst": {
        "rating": 10.0,
        "result": 1227.0
    },
    "impact": {
        "rating": 8.0,
        "result": 60.8
    },
    "moisture_vapour_resistance": 161.9,
    "thermal_resistance": 0.395,
    "file": "reports/J19T11__Rev__It__Horizon__2__Textile__Jacket.txt"
}