{
    "head": {
        " ": "Test Results Summary:",
        "Brand": "Ducati",
        "Model": "Speed 3",
        "Type": "Jacket - Textile",
        "Date purchased": "29 November 2019",
        "Sizes tested": "L and XL",
        "Gender": "M",
        "Style": "Sports",
        "Test code": "J19T28",
        "Rating": "Score",
        "MotoCAP Protection Rating": "\uf0ea          28.7",
        "Abrasion": "1/10        1.00",
        "Burst": "10/10       1261",
        "Impact": "5/10        37.0",
        "MotoCAP Comfort Rating": "\uf0ea\uf0ea\uf0ea         0.472",
        "Moisture Vapour Resistance": "29.4",
        "Thermal Resistance": "0.232",
        "Water resistance": "N/A         N/A",
        "Zone 1": "Zone 2                      Zone 3                      Zone 4",
        "High risk of abrasion": "High risk of ab"
    },
    "materials": {
        "A": {
            "code": "A",
            "desc": "Woven fabric shell, fabric layer and mesh inner liner",
            "avg": 1.41,
            "vals": [
                "1.34",
                "0.88",
                "1.63",
                "2.41",
                "1.10",
                "1.07"
            ]
        },
        "B": {
            "code": "B",
            "desc": "Woven fabric shell with mesh inner liner",
            "avg": 0.41,
            "vals": [
                "0.39",
                "0.49",
                "0.42",
                "0.33",
                "0.00",
                "0.00"
            ]
        },
        "C": {
            "code": "C",
            "desc": "Mesh fabric shell with mesh inner liner",
            "avg": 0.37,
            "vals": [
                "0.39",
                "0.26",
                "0.46",
                "0.43",
                "0.33",
                "0.00"
            ]
        }
    },
    "abrasion": {
        "rating": 1.0,
        "result": 1.0
    },
    "burst": {
        "rating": 10.0,
        "result": 1261.0
    },
    "impact": {
        "rating": 5.0,
        "result": 37.0
    },
    "moisture_vapour_resistance": 29.4,
    "thermal_resistance": 0.232,
    "file": "reports/J19T28__Ducati__Speed__3__Textile__Jacket.txt"
}