{
    "head": {
        " ": "",
        "Brand": "BMW",
        "Model": "BlackLeather",
        "Type": "Jacket - Leather",
        "Date purchased": "18 January 2022",
        "Sizes tested": "52 and 58",
        "Test garment gender": "Male",
        "Style": "All Purpose",
        "RRP": "$1,000.00",
        "Test Results Summary": "Rating         Score",
        "MotoCAP Protection Rating": "\u2605\u2605\u2605\u2605             54.0",
        "Abrasion": "8/10          5.64",
        "Burst": "10/10         1114",
        "Impact": "7/10          48.9",
        "MotoCAP Breathability Rating": "\u2605            0.224",
        "Moisture Vapour Resistance": "-             67.8",
        "Thermal Resistance": "-            0.253",
        "Water resistance": "N/A            N/A"
    },
    "materials": {
        "A": {
            "code": "A",
            "avg": 8.07,
            "vals": [
                "7.99",
                "5.52",
                "8.97",
                "8.76",
                "9.81",
                "7.34"
            ],
            "desc": "Quilted leather shell with fabric inner liner"
        },
        "B": {
            "code": "B",
            "avg": 4.88,
            "vals": [
                "5.16",
                "4.66",
                "4.84",
                "4.73",
                "4.16",
                "5.71"
            ],
            "desc": "Leather shell with fabric inner liner"
        }
    },
    "abrasion": {
        "rating": 8.0,
        "result": 5.64
    },
    "burst": {
        "rating": 10.0,
        "result": 1114.0
    },
    "impact": {
        "rating": 7.0,
        "result": 48.9
    },
    "moisture_vapour_resistance": "-             67.8",
    "thermal_resistance": "-            0.253",
    "file": "reports/J20L34__BMW__BlackLeather__Leather__Jacket.txt"
}