{
    "head": {
        " ": "",
        "Brand": "Alpinestars",
        "Model": "Stella Vika V2",
        "Type": "Jacket - Leather",
        "Date purchased": "20 October 2020",
        "Sizes tested": "44 and 46",
        "Test garment gender": "Female",
        "Style": "All Purpose",
        "RRP": "$649.95",
        "Test Results Summary": "Rating        Score",
        "MotoCAP Protection Rating": "\u2605\u2605           30.7",
        "Abrasion": "2/10         1.85",
        "Burst": "8/10         833",
        "Impact": "6/10         43.9",
        "MotoCAP Breathability Rating": "\u2605\u2605          0.340",
        "Moisture Vapour Resistance": "-           53.2",
        "Thermal Resistance": "-          0.302",
        "Water resistance": "N/A          N/A"
    },
    "materials": {
        "A": {
            "code": "A",
            "avg": 2.19,
            "vals": [
                "2.11",
                "1.99",
                "1.88",
                "2.39",
                "2.28",
                "2.51"
            ],
            "desc": "Leather shell with fabric inner liner"
        },
        "B": {
            "code": "B",
            "avg": 1.09,
            "vals": [
                "1.55",
                "1.16",
                "1.13",
                "1.12",
                "0.74",
                "0.82"
            ],
            "desc": "Stretch fabric shell with fabric inner liner"
        }
    },
    "abrasion": {
        "rating": 2.0,
        "result": 1.85
    },
    "burst": {
        "rating": 8.0,
        "result": 833.0
    },
    "impact": {
        "rating": 6.0,
        "result": 43.9
    },
    "moisture_vapour_resistance": "-           53.2",
    "thermal_resistance": "-          0.302",
    "file": "reports/J20L02__Alpinestars__Stella__Vika__V2__Leather__Jacket.txt"
}