{
    "head": {
        " ": "This MotoCAP safety rating applies to:",
        "Brand": "Dainese",
        "Model": "Nexus",
        "Type": "Jacket - Leather",
        "Date purchased": "20 October 2020",
        "Sizes tested": "44 and 54",
        "Test garment gender": "Male",
        "Style": "Sports",
        "RRP": "$649.95",
        "Test Results Summary": "Rating       Score",
        "MotoCAP Protection Rating": "\u2605\u2605           40.3",
        "Abrasion": "5/10        3.87",
        "Burst": "10/10       1540",
        "Impact": "3/10        18.5",
        "MotoCAP Breathability Rating": "\u2605\u2605          0.299",
        "Moisture Vapour Resistance": "-           72.5",
        "Thermal Resistance": "-          0.361",
        "Water resistance": "N/A          N/A"
    },
    "materials": {
        "A": {
            "code": "A",
            "avg": 3.96,
            "vals": [
                "3.90",
                "4.52",
                "4.16",
                "3.64",
                "3.61",
                "3.90"
            ],
            "desc": "Leather shell with mesh inner liner"
        },
        "B": {
            "code": "B",
            "avg": 1.77,
            "vals": [
                "2.05",
                "2.13",
                "1.58",
                "1.35"
            ],
            "desc": "Stretch fabric shell with mesh inner liner"
        }
    },
    "abrasion": {
        "rating": 5.0,
        "result": 3.87
    },
    "burst": {
        "rating": 10.0,
        "result": 1540.0
    },
    "impact": {
        "rating": 3.0,
        "result": 18.5
    },
    "moisture_vapour_resistance": "-           72.5",
    "thermal_resistance": "-          0.361",
    "file": "reports/J20L01__Dainese__Nexus__Leather__Jacket.txt"
}