{
    "head": {
        " ": "Wa",
        "Brand": "Triumph",
        "Model": "Charlotte",
        "Type": "Jacket - Textile",
        "Date purchased": "4 December 2020",
        "Sizes tested": "L and XL",
        "Test garment gender": "Female",
        "Style": "All Purpose",
        "RRP": "$581.77",
        "Test Results Summary": "Rating        Score",
        "MotoCAP Protection Rating": "\u2605             25.8",
        "Abrasion": "1/10          0.40",
        "Burst": "10/10         1303",
        "Impact": "5/10          36.0",
        "MotoCAP Breathability Rating": "\u2605            0.221",
        "Moisture Vapour Resistance": "-            82.8",
        "Thermal Resistance": "-           0.306",
        "Water resistance": "1/10           43.8"
    },
    "materials": {
        "A": {
            "code": "A",
            "avg": 6.89,
            "vals": [
                "10.00",
                "7.34",
                "4.59",
                "5.62",
                "0.00",
                "0.00"
            ],
            "desc": "Quilted fabric shell, water resistant layer and mesh inner liner"
        },
        "B": {
            "code": "B",
            "avg": 0.66,
            "vals": [
                "0.67",
                "0.60",
                "0.53",
                "1.04",
                "0.59",
                "0.51"
            ],
            "desc": "Fabric shell, water resistant layer and mesh inner liner"
        }
    },
    "abrasion": {
        "rating": 1.0,
        "result": 0.4
    },
    "burst": {
        "rating": 10.0,
        "result": 1303.0
    },
    "impact": {
        "rating": 5.0,
        "result": 36.0
    },
    "moisture_vapour_resistance": "-            82.8",
    "thermal_resistance": "-           0.306",
    "file": "reports/J20T06__Triumph__Charlotte__Textile__Jacket.txt"
}