{
    "head": {
        " ": "",
        "Brand": "Ixon",
        "Model": "Draco",
        "Type": "Jacket - Textile",
        "Date purchased": "3 March 2022",
        "Sizes tested": "L and XL",
        "Test garment gender": "Male",
        "Style": "Sports",
        "RRP": "$269.95",
        "Test Results Summary": "Rating        Score",
        "MotoCAP Protection Rating": "\u2605\u2605             34.3",
        "Abrasion": "1/10          0.80",
        "Burst": "10/10         1638",
        "Impact": "6/10          46.5",
        "MotoCAP Breathability Rating": "\u2605            0.264",
        "Moisture Vapour Resistance": "-            56.7",
        "Thermal Resistance": "-           0.250",
        "Water resistance": "N/A           N/A"
    },
    "materials": {
        "A": {
            "code": "A",
            "avg": 0.93,
            "vals": [
                "1.16",
                "0.47",
                "0.91",
                "1.38",
                "0.71",
                "0.97"
            ],
            "desc": "Woven fabric shell with mesh inner liner"
        },
        "B": {
            "code": "B",
            "avg": 0.51,
            "vals": [
                "0.34",
                "0.54",
                "0.70",
                "0.43",
                "0.49",
                "0.57"
            ],
            "desc": "Mesh fabric shell with mesh inner liner"
        }
    },
    "abrasion": {
        "rating": 1.0,
        "result": 0.8
    },
    "burst": {
        "rating": 10.0,
        "result": 1638.0
    },
    "impact": {
        "rating": 6.0,
        "result": 46.5
    },
    "moisture_vapour_resistance": "-            56.7",
    "thermal_resistance": "-           0.250",
    "file": "reports/J20T51__Ixon__Draco__Textile__Jacket.txt"
}