{
    "head": {
        " ": "This MotoCAP safety rating applies to:",
        "Brand": "Ixon",
        "Model": "Orion Lady",
        "Type": "Jacket - Textile",
        "Date purchased": "25 November 2021",
        "Sizes tested": "XL and L",
        "Test garment gender": "Female",
        "Style": "All Purpose",
        "RRP": "$269.95",
        "Test Results Summary": "Rating        Score",
        "MotoCAP Protection Rating": "\u2605\u2605             33.4",
        "Abrasion": "1/10          0.49",
        "Burst": "10/10         1510",
        "Impact": "7/10          52.8",
        "MotoCAP Breathability Rating": "\u2605            0.280",
        "Moisture Vapour Resistance": "-            52.2",
        "Thermal Resistance": "-           0.244",
        "Water resistance": "9/10            2.1"
    },
    "materials": {
        "A": {
            "code": "A",
            "avg": 0.54,
            "vals": [
                "0.68",
                "0.60",
                "0.28",
                "0.82",
                "0.42",
                "0.41"
            ],
            "desc": "Woven fabric shell with mesh inner liner"
        },
        "B": {
            "code": "B",
            "avg": 0.37,
            "vals": [
                "0.35",
                "0.41",
                "0.34",
                "0.30",
                "0.34",
                "0.49"
            ],
            "desc": "Mesh fabric shell with fabric inner liner"
        }
    },
    "abrasion": {
        "rating": 1.0,
        "result": 0.49
    },
    "burst": {
        "rating": 10.0,
        "result": 1510.0
    },
    "impact": {
        "rating": 7.0,
        "result": 52.8
    },
    "moisture_vapour_resistance": "-            52.2",
    "thermal_resistance": "-           0.244",
    "file": "reports/J20T38__Ixon__Orion__Lady__Textile__Jacket.txt"
}