{
    "head": {
        " ": "",
        "Brand": "Macna",
        "Model": "District",
        "Type": "Jacket - Textile",
        "Date purchased": "22 February 2022",
        "Sizes tested": "M and XL",
        "Test garment gender": "Male",
        "Style": "Streetwear",
        "RRP": "$249.95",
        "Test Results Summary": "Rating        Score",
        "MotoCAP Protection Rating": "\u2605             18.1",
        "Abrasion": "1/10           0.86",
        "Burst": "8/10           822",
        "Impact": "3/10           18.6",
        "MotoCAP Breathability Rating": "\u2605\u2605\u2605            0.427",
        "Moisture Vapour Resistance": "-            26.3",
        "Thermal Resistance": "-           0.187",
        "Water resistance": "N/A           N/A"
    },
    "materials": {
        "A": {
            "code": "A",
            "avg": 1.61,
            "vals": [
                "1.96",
                "1.91",
                "0.00",
                "1.85",
                "2.02",
                "1.93"
            ],
            "desc": "Woven fabric shell, para-aramid fabric layer and mesh inner liner"
        },
        "B": {
            "code": "B",
            "avg": 0.65,
            "vals": [
                "0.04",
                "0.66",
                "1.01",
                "0.73",
                "0.82",
                "0.66"
            ],
            "desc": "Woven fabric shell with mesh inner liner"
        }
    },
    "abrasion": {
        "rating": 1.0,
        "result": 0.86
    },
    "burst": {
        "rating": 8.0,
        "result": 822.0
    },
    "impact": {
        "rating": 3.0,
        "result": 18.6
    },
    "moisture_vapour_resistance": "-            26.3",
    "thermal_resistance": "-           0.187",
    "file": "reports/J20T44__Macna__District__Textile__Jacket.txt"
}