{
    "head": {
        " ": "This MotoCAP safety rating applies to:",
        "Brand": "Macna",
        "Model": "EPI Nighteye",
        "Type": "Jacket - Textile",
        "Date purchased": "25 May 2021",
        "Sizes tested": "XL and 2XL",
        "Test garment gender": "Male",
        "Style": "Tourer",
        "RRP": "$359.00",
        "Test Results Summary": "Rating        Score",
        "MotoCAP Protection Rating": "\u2605             23.6",
        "Abrasion": "1/10          0.76",
        "Burst": "10/10         1210",
        "Impact": "4/10          25.7",
        "MotoCAP Breathability Rating": "\u2be8            0.109",
        "Moisture Vapour Resistance": "-           143.0",
        "Thermal Resistance": "-           0.260",
        "Water resistance": "1/10           26.1"
    },
    "materials": {
        "A": {
            "code": "A",
            "avg": 0.88,
            "vals": [
                "0.84",
                "1.04",
                "0.89",
                "1.39",
                "0.66",
                "0.44"
            ],
            "desc": "Heavy woven fabric shell with water-resistant inner liner"
        },
        "B": {
            "code": "B",
            "avg": 0.48,
            "vals": [
                "0.59",
                "0.62",
                "0.32",
                "0.50",
                "0.52",
                "0.35"
            ],
            "desc": "Reflective coated woven fabric shell with water-resistant inner liner"
        },
        "C": {
            "code": "C",
            "avg": 0.62,
            "vals": [
                "0.43",
                "0.43",
                "1.00",
                "0.63",
                "0.47",
                "0.75"
            ],
            "desc": "Woven fabric shell with water-resistant inner liner"
        }
    },
    "abrasion": {
        "rating": 1.0,
        "result": 0.76
    },
    "burst": {
        "rating": 10.0,
        "result": 1210.0
    },
    "impact": {
        "rating": 4.0,
        "result": 25.7
    },
    "moisture_vapour_resistance": "-           143.0",
    "thermal_resistance": "-           0.260",
    "file": "reports/J20T26__Macna__EPI__Nighteye__Textile__Jacket_0.txt"
}