{
    "head": {
        " ": "This MotoCAP safety rating applies to:",
        "Brand": "RST",
        "Model": "Atlas CE Waterproof",
        "Type": "Jacket - Textile",
        "Date purchased": "28 February 2022",
        "Sizes tested": "2XL and L",
        "Test garment gender": "Male",
        "Style": "Tourer",
        "RRP": "$249.99",
        "Test Results Summary": "Rating        Score",
        "MotoCAP Protection Rating": "\u2605\u2605             31.9",
        "Abrasion": "2/10          1.51",
        "Burst": "10/10         1578",
        "Impact": "4/10          28.5",
        "MotoCAP Breathability Rating": "\u2be8            0.041",
        "Moisture Vapour Resistance": "-           548.2",
        "Thermal Resistance": "-           0.377",
        "Water resistance": "1/10           27.4"
    },
    "materials": {
        "A": {
            "code": "A",
            "avg": 1.04,
            "vals": [
                "0.97",
                "0.87",
                "1.89",
                "0.95",
                "0.66",
                "0.87"
            ],
            "desc": "Woven fabric shell, fabric underlay, water-resistant layer and mesh inner liner"
        },
        "B": {
            "code": "B",
            "avg": 2.22,
            "vals": [
                "2.02",
                "1.92",
                "2.14",
                "2.24",
                "1.93",
                "3.05"
            ],
            "desc": "Woven fabric shell, water-resistant layer and mesh inner liner"
        }
    },
    "abrasion": {
        "rating": 2.0,
        "result": 1.51
    },
    "burst": {
        "rating": 10.0,
        "result": 1578.0
    },
    "impact": {
        "rating": 4.0,
        "result": 28.5
    },
    "moisture_vapour_resistance": "-           548.2",
    "thermal_resistance": "-           0.377",
    "file": "reports/J20T50__RST__Atlas__CE__Waterproof__Textile__Jacket.txt"
}