{
    "head": {
        " ": "",
        "Brand": "Rev'It",
        "Model": "Mile",
        "Type": "Jacket - Leather",
        "Date purchased": "28 July 2022",
        "Sizes tested": "52 and 54",
        "Test garment gender": "Male",
        "Style": "All Purpose",
        "RRP": "$749.00",
        "Test Results Summary": "Rating       Score",
        "MotoCAP Protection Rating": "\u2605\u2605\u2605\u2605           58.0",
        "Abrasion": "8/10        6.33",
        "Burst": "10/10       1637",
        "Impact": "5/10        33.3",
        "MotoCAP Breathability Rating": "\u2605\u2605          0.327",
        "Moisture Vapour Resistance": "-           51.4",
        "Thermal Resistance": "-          0.280",
        "Water resistance": "N/A          N/A"
    },
    "materials": {
        "A": {
            "code": "A",
            "avg": 10.0,
            "vals": [
                "10.00",
                "10.00",
                "10.00",
                "10.00",
                "10.00",
                "10.00"
            ],
            "desc": "Leather shell, foam layer and mesh inner liner"
        },
        "B": {
            "code": "B",
            "avg": 6.02,
            "vals": [
                "5.42",
                "7.42",
                "5.35",
                "4.77",
                "6.28",
                "6.90"
            ],
            "desc": "Leather shell with mesh inner liner"
        },
        "C": {
            "code": "C",
            "avg": 1.7,
            "vals": [
                "1.84",
                "1.58",
                "1.78",
                "1.59"
            ],
            "desc": "Stretch fabric shell with mesh inner liner"
        }
    },
    "abrasion": {
        "rating": 8.0,
        "result": 6.33
    },
    "burst": {
        "rating": 10.0,
        "result": 1637.0
    },
    "impact": {
        "rating": 5.0,
        "result": 33.3
    },
    "moisture_vapour_resistance": "-           51.4",
    "thermal_resistance": "-          0.280",
    "file": "reports/J21L06__-__Rev_27It__Mile__Leather__Jacket.txt"
}