{
    "head": {
        " ": "This MotoCAP safety rating applies to:",
        "Brand": "Oxford",
        "Model": "Bladon",
        "Type": "Jacket - Leather",
        "Date purchased": "5 December 2022",
        "Sizes tested": "XL and 2XL",
        "Test garment gender": "Male",
        "Style": "All Purpose",
        "RRP": "$559.00",
        "Test Results Summary": "Rating         Score",
        "MotoCAP Protection Rating": "\u2605\u2605\u2605             46.8",
        "Abrasion": "8/10         6.07",
        "Burst": "6/10         693",
        "Impact": "4/10         31.6",
        "MotoCAP Breathability Rating": "\u2605           0.164",
        "Moisture Vapour Resistance": "-           96.8",
        "Thermal Resistance": "-          0.265",
        "Water resistance": "N/A          N/A"
    },
    "materials": {
        "A": {
            "code": "A",
            "avg": 6.69,
            "vals": [
                "7.13",
                "4.78",
                "5.51",
                "6.76",
                "8.09",
                "7.85"
            ],
            "desc": "Leather shell, mesh foam and fabric inner liner"
        },
        "B": {
            "code": "B",
            "avg": 5.49,
            "vals": [
                "6.01",
                "4.68",
                "5.43",
                "5.61",
                "6.24",
                "4.98"
            ],
            "desc": "Leather shell with fabric inner liner"
        }
    },
    "abrasion": {
        "rating": 8.0,
        "result": 6.07
    },
    "burst": {
        "rating": 6.0,
        "result": 693.0
    },
    "impact": {
        "rating": 4.0,
        "result": 31.6
    },
    "moisture_vapour_resistance": "-           96.8",
    "thermal_resistance": "-          0.265",
    "file": "reports/J21L15__-__Oxford__Bladon__Leather__Jacket.txt"
}