{
    "head": {
        " ": "",
        "Brand": "Segura",
        "Model": "Jericho",
        "Type": "Jacket - Textile",
        "Date purchased": "17 June 2022",
        "Sizes tested": "XL and 2XL",
        "Test garment gender": "Male",
        "Style": "All Purpose",
        "RRP": "$449.95",
        "Test Results Summary": "Rating        Score",
        "MotoCAP Protection Rating": "\u2605\u2605\u2605             41.0",
        "Abrasion": "3/10          2.23",
        "Burst": "10/10         1255",
        "Impact": "8/10          57.7",
        "MotoCAP Breathability Rating": "\u2be8            0.089",
        "Moisture Vapour Resistance": "-           163.3",
        "Thermal Resistance": "-           0.243",
        "Water resistance": "10/10           0.9"
    },
    "materials": {
        "A": {
            "code": "A",
            "avg": 5.35,
            "vals": [
                "5.26",
                "3.99",
                "8.09",
                "7.09",
                "3.58",
                "4.06"
            ],
            "desc": "Quilted woven fabric shell with water-resistant inner liner"
        },
        "B": {
            "code": "B",
            "avg": 0.92,
            "vals": [
                "0.88",
                "0.76",
                "0.96",
                "1.17",
                "0.89",
                "0.89"
            ],
            "desc": "Woven fabric shell with water-resistant inner liner"
        }
    },
    "abrasion": {
        "rating": 3.0,
        "result": 2.23
    },
    "burst": {
        "rating": 10.0,
        "result": 1255.0
    },
    "impact": {
        "rating": 8.0,
        "result": 57.7
    },
    "moisture_vapour_resistance": "-           163.3",
    "thermal_resistance": "-           0.243",
    "file": "reports/J21T02__-__Segura__Jericho__Textile__Jacket.txt"
}