{
    "head": {
        " ": "This MotoCAP safety rating applies to:",
        "Brand": "RST",
        "Model": "Pro Series Paragon 6 CE W/P",
        "Type": "Jacket - Textile",
        "Date purchased": "28 July 2022",
        "Sizes tested": "L and XL",
        "Test garment gender": "Male",
        "Style": "All Purpose",
        "RRP": "$450.00",
        "Test Results Summary": "Rating         Score",
        "MotoCAP Protection Rating": "\u2605            27.9",
        "Abrasion": "1/10           0.84",
        "Burst": "10/10          1530",
        "Impact": "4/10           28.0",
        "MotoCAP Breathability Rating": "\u2be8           0.037",
        "Moisture Vapour Resistance": "-         567.0",
        "Thermal Resistance": "-         0.353",
        "Water resistance": "2/10         20.9"
    },
    "materials": {
        "A": {
            "code": "A",
            "avg": 2.23,
            "vals": [
                "1.77",
                "1.78",
                "3.56",
                "1.82"
            ],
            "desc": "Heavy woven fabric shell, water-resistant layer and mesh inner liner"
        },
        "B": {
            "code": "B",
            "avg": 0.86,
            "vals": [
                "1.11",
                "0.89",
                "0.84",
                "0.86",
                "0.63",
                "0.83"
            ],
            "desc": "Woven fabric shell, water-resistant layer and mesh inner liner"
        }
    },
    "abrasion": {
        "rating": 1.0,
        "result": 0.84
    },
    "burst": {
        "rating": 10.0,
        "result": 1530.0
    },
    "impact": {
        "rating": 4.0,
        "result": 28.0
    },
    "moisture_vapour_resistance": "-         567.0",
    "thermal_resistance": "-         0.353",
    "file": "reports/J21T09__RST__Pro__Series__Paragon__6__CE__W-P__Textile__Jacket.txt"
}