{
    "head": {
        " ": "This MotoCAP safety rating applies to:",
        "Brand": "Richa",
        "Model": "Brutus Gore-Tex",
        "Type": "Jacket - Textile",
        "Date purchased": "5 December 2022",
        "Sizes tested": "L and 3XL",
        "Test garment gender": "Male",
        "Style": "All Purpose",
        "RRP": "$1,049.00",
        "Test Results Summary": "Rating         Score",
        "MotoCAP Protection Rating": "\u2605            25.8",
        "Abrasion": "1/10         0.61",
        "Burst": "8/10         887",
        "Impact": "6/10         46.4",
        "MotoCAP Breathability Rating": "\u2605           0.196",
        "Moisture Vapour Resistance": "-         101.9",
        "Thermal Resistance": "-         0.333",
        "Water resistance": "2/10         23.8"
    },
    "materials": {
        "A": {
            "code": "A",
            "avg": 0.67,
            "vals": [
                "0.66",
                "0.65",
                "0.79",
                "0.70",
                "0.67",
                "0.58"
            ],
            "desc": "Coarse woven fabric shell with mesh inner liner"
        },
        "B": {
            "code": "B",
            "avg": 0.56,
            "vals": [
                "0.64",
                "0.65",
                "0.37",
                "0.57",
                "0.60",
                "0.51"
            ],
            "desc": "Woven fabric shell with mesh inner liner"
        }
    },
    "abrasion": {
        "rating": 1.0,
        "result": 0.61
    },
    "burst": {
        "rating": 8.0,
        "result": 887.0
    },
    "impact": {
        "rating": 6.0,
        "result": 46.4
    },
    "moisture_vapour_resistance": "-         101.9",
    "thermal_resistance": "-         0.333",
    "file": "reports/J21T19__-__Richa__Brutus__Gore-Tex__Textile__Jacket.txt"
}