{
    "head": {
        " ": "Removable liners",
        "Brand": "Dririder",
        "Model": "Breeze",
        "Type": "Jacket - Textile",
        "Date purchased": "12 September 2022",
        "Sizes tested": "XL",
        "Test garment gender": "Male",
        "Style": "All Purpose",
        "RRP": "$189.95",
        "Test Results Summary": "Rating        Score",
        "MotoCAP Protection Rating": "\u2605             19.3",
        "Abrasion": "1/10          0.32",
        "Burst": "10/10         1241",
        "Impact": "2/10          17.5",
        "MotoCAP Breathability Rating": "\u2605\u2605\u2605            0.462",
        "Moisture Vapour Resistance": "-            31.2",
        "Thermal Resistance": "-           0.240",
        "Water resistance": "N/A           N/A"
    },
    "materials": {
        "A": {
            "code": "A",
            "avg": 0.33,
            "vals": [
                "0.29",
                "0.20",
                "0.45",
                "0.37",
                "0.29",
                "0.38"
            ],
            "desc": "Woven fabric shell with mesh inner liner"
        },
        "B": {
            "code": "B",
            "avg": 0.3,
            "vals": [
                "0.29",
                "0.18",
                "0.38",
                "0.31",
                "0.32",
                "0.34"
            ],
            "desc": "Mesh fabric shell with mesh inner liner"
        }
    },
    "abrasion": {
        "rating": 1.0,
        "result": 0.32
    },
    "burst": {
        "rating": 10.0,
        "result": 1241.0
    },
    "impact": {
        "rating": 2.0,
        "result": 17.5
    },
    "moisture_vapour_resistance": "-            31.2",
    "thermal_resistance": "-           0.240",
    "file": "reports/J21T18__Dririder__Breeze__Textile__Jacket.txt"
}