{
    "head": {
        " ": "This MotoCAP safety rating applies to:",
        "Brand": "Dririder",
        "Model": "Apex 5 Ladies",
        "Type": "Jacket - Textile",
        "Date purchased": "9 January 2023",
        "Sizes tested": "S and M",
        "Test garment gender": "Female",
        "Style": "All Purpose",
        "RRP": "$279.95",
        "Test Results Summary": "Rating          Score",
        "MotoCAP Protection Rating": "\u2605\u2605           28.4",
        "Abrasion": "1/10            0.76",
        "Burst": "10/10           1677",
        "Impact": "4/10            26.1",
        "MotoCAP Breathability Rating": "\u2be8           0.072",
        "Moisture Vapour Resistance": "-         260.3",
        "Thermal Resistance": "-         0.312",
        "Water resistance": "1/10         27.4"
    },
    "materials": {
        "A": {
            "code": "A",
            "avg": 7.02,
            "vals": [
                "10.00",
                "5.49",
                "5.56"
            ],
            "desc": "Woven fabric shell, cushion layer, water-resistant layer and mesh inner liner"
        },
        "B": {
            "code": "B",
            "avg": 0.57,
            "vals": [
                "0.68",
                "0.56",
                "0.53",
                "0.61",
                "0.45",
                "0.59"
            ],
            "desc": "Woven fabric shell, water-resistant layer and mesh inner liner"
        }
    },
    "abrasion": {
        "rating": 1.0,
        "result": 0.76
    },
    "burst": {
        "rating": 10.0,
        "result": 1677.0
    },
    "impact": {
        "rating": 4.0,
        "result": 26.1
    },
    "moisture_vapour_resistance": "-         260.3",
    "thermal_resistance": "-         0.312",
    "file": "reports/J21T26__-__Dririder__Apex__5__Ladies__Textile__Jacket.txt"
}