{
    "head": {
        " ": "This MotoCAP safety rating applies to:",
        "Brand": "Macna",
        "Model": "Adept",
        "Type": "Jacket - Textile",
        "Date purchased": "5 December 2022",
        "Sizes tested": "L and XL",
        "Test garment gender": "Male",
        "Style": "All Purpose",
        "RRP": "$448.99",
        "Test Results Summary": "Rating         Score",
        "MotoCAP Protection Rating": "\u2605            26.2",
        "Abrasion": "1/10         0.71",
        "Burst": "6/10         635",
        "Impact": "7/10         54.4",
        "MotoCAP Breathability Rating": "\u2be8           0.096",
        "Moisture Vapour Resistance": "-         213.2",
        "Thermal Resistance": "-         0.343",
        "Water resistance": "8/10          4.8"
    },
    "materials": {
        "A": {
            "code": "A",
            "avg": 0.71,
            "vals": [
                "0.70",
                "0.60",
                "0.68",
                "0.66",
                "0.70",
                "0.95"
            ],
            "desc": "Woven fabric shell with laminated mesh inner liner"
        }
    },
    "abrasion": {
        "rating": 1.0,
        "result": 0.71
    },
    "burst": {
        "rating": 6.0,
        "result": 635.0
    },
    "impact": {
        "rating": 7.0,
        "result": 54.4
    },
    "moisture_vapour_resistance": "-         213.2",
    "thermal_resistance": "-         0.343",
    "file": "reports/J21T21__-__Macna__Adept__Textile__Jacket.txt"
}