{
    "head": {
        " ": "This MotoCAP safety rating applies to:",
        "Brand": "Rev'it",
        "Model": "Flare 2",
        "Type": "Jacket - Textile",
        "Date purchased": "5 December 2022",
        "Sizes tested": "L, XL",
        "Test garment gender": "Male",
        "Style": "Streetwear",
        "RRP": "$449.00",
        "Test Results Summary": "Rating         Score",
        "MotoCAP Protection Rating": "\u2605\u2605           30.1",
        "Abrasion": "1/10           0.39",
        "Burst": "10/10          1037",
        "Impact": "8/10           59.2",
        "MotoCAP Breathability Rating": "\u2be8           0.099",
        "Moisture Vapour Resistance": "-         170.6",
        "Thermal Resistance": "-         0.281",
        "Water resistance": "1/10         58.2"
    },
    "materials": {
        "A": {
            "code": "A",
            "avg": 0.39,
            "vals": [
                "0.33",
                "0.42",
                "0.41",
                "0.43",
                "0.34",
                "0.41"
            ],
            "desc": "Woven fabric shell with water-resistant inner liner"
        }
    },
    "abrasion": {
        "rating": 1.0,
        "result": 0.39
    },
    "burst": {
        "rating": 10.0,
        "result": 1037.0
    },
    "impact": {
        "rating": 8.0,
        "result": 59.2
    },
    "moisture_vapour_resistance": "-         170.6",
    "thermal_resistance": "-         0.281",
    "file": "reports/J21T20__-__Rev_27it__Flare__2__Textile__Jacket.txt"
}