{
    "head": {
        " ": "This MotoCAP safety rating applies to:",
        "Brand": "Brixton",
        "Model": "Aviator",
        "Type": "Jacket - Leather",
        "Date purchased": "20 February 2023",
        "Sizes tested": "XXL",
        "Test garment gender": "Male",
        "Style": "All Purpose",
        "RRP": "$549.00",
        "Test Results Summary": "Rating        Score",
        "MotoCAP Protection Rating": "\u2605\u2605\u2605            41.1",
        "Abrasion": "4/10          3.18",
        "Burst": "10/10         1104",
        "Impact": "6/10          47.4",
        "MotoCAP Breathability Rating": "\u2605\u2605         0.370",
        "Moisture Vapour Resistance": "-          41.1",
        "Thermal Resistance": "-         0.253",
        "Water resistance": "N/A         N/A"
    },
    "materials": {
        "A": {
            "code": "A",
            "avg": 3.18,
            "vals": [
                "2.58",
                "2.45",
                "4.12",
                "3.57",
                "2.32",
                "4.02"
            ],
            "desc": "Leather shell with fabric inner liner"
        }
    },
    "abrasion": {
        "rating": 4.0,
        "result": 3.18
    },
    "burst": {
        "rating": 10.0,
        "result": 1104.0
    },
    "impact": {
        "rating": 6.0,
        "result": 47.4
    },
    "moisture_vapour_resistance": "-          41.1",
    "thermal_resistance": "-         0.253",
    "file": "reports/J23L04__-__Brixton__Aviator__Leather__Jacket.txt"
}