{
    "head": {
        " ": "",
        "Brand": "Argon",
        "Model": "Angel Ladies",
        "Type": "Jacket - Leather",
        "Date purchased": "29 June 2023",
        "Sizes tested": "14",
        "Test garment gender": "Female",
        "Style": "All Purpose",
        "RRP": "$449.00",
        "Test Results Summary": "Rating         Score",
        "MotoCAP Protection Rating": "\u2605\u2605            34.4",
        "Abrasion": "2/10          1.77",
        "Burst": "9/10          928",
        "Impact": "7/10          54.1",
        "MotoCAP Breathability Rating": "\u2605            0.243",
        "Moisture Vapour Resistance": "-            62.3",
        "Thermal Resistance": "-           0.253",
        "Water resistance": "N/A           N/A"
    },
    "materials": {
        "A": {
            "code": "A",
            "avg": 2.56,
            "vals": [
                "2.50",
                "3.41",
                "1.84",
                "2.08",
                "3.22",
                "2.32"
            ],
            "desc": "Leather shell, filler layer, mesh layer and mesh inner liner"
        },
        "B": {
            "code": "B",
            "avg": 1.35,
            "vals": [
                "1.74",
                "1.55",
                "1.48",
                "1.08",
                "1.09",
                "1.14"
            ],
            "desc": "Leather shell with mesh inner liner"
        }
    },
    "abrasion": {
        "rating": 2.0,
        "result": 1.77
    },
    "burst": {
        "rating": 9.0,
        "result": 928.0
    },
    "impact": {
        "rating": 7.0,
        "result": 54.1
    },
    "moisture_vapour_resistance": "-            62.3",
    "thermal_resistance": "-           0.253",
    "file": "reports/J23L27__Argon__Angel__Ladies__Leather__Jacket.txt"
}