{
    "head": {
        " ": "This MotoCAP safety rating applies to:",
        "Brand": "Octane",
        "Model": "Anchor 3/4",
        "Type": "Jacket - Textile",
        "Date purchased": "20 February 2023",
        "Sizes tested": "XL and 2XL",
        "Test garment gender": "Male",
        "Style": "Sports",
        "RRP": "$329.00",
        "Test Results Summary": "Rating         Score",
        "MotoCAP Protection Rating": "\u2605\u2605           32.2",
        "Abrasion": "2/10           1.32",
        "Burst": "10/10          1320",
        "Impact": "6/10           41.3",
        "MotoCAP Breathability Rating": "\u2be8           0.054",
        "Moisture Vapour Resistance": "-         340.9",
        "Thermal Resistance": "-         0.307",
        "Water resistance": "1/10         45.9"
    },
    "materials": {
        "A": {
            "code": "A",
            "avg": 2.45,
            "vals": [
                "2.60",
                "2.33",
                "2.19",
                "2.87",
                "2.33",
                "2.39"
            ],
            "desc": "High density woven fabric shell, water-resistant layer and mesh inner liner"
        },
        "B": {
            "code": "B",
            "avg": 0.4,
            "vals": [
                "0.49",
                "0.31",
                "0.57",
                "0.28",
                "0.41",
                "0.38"
            ],
            "desc": "Woven fabric shell, water-resistant layer and mesh inner liner"
        }
    },
    "abrasion": {
        "rating": 2.0,
        "result": 1.32
    },
    "burst": {
        "rating": 10.0,
        "result": 1320.0
    },
    "impact": {
        "rating": 6.0,
        "result": 41.3
    },
    "moisture_vapour_resistance": "-         340.9",
    "thermal_resistance": "-         0.307",
    "file": "reports/J23T04__-__Octane__Anchor__3-4__Textile__Jacket.txt"
}