{
    "head": {
        " ": "Thermal l",
        "Brand": "Belstaff",
        "Model": "Ariel Pro Waxed Cotton",
        "Type": "Jacket - Textile",
        "Date purchased": "1 June 2023",
        "Sizes tested": "XL and 2XL",
        "Test garment gender": "Male",
        "Style": "All Purpose",
        "RRP": "$959.99",
        "Test Results Summary": "Rating        Score",
        "MotoCAP Protection Rating": "\u2605\u2605\u2605             42.0",
        "Abrasion": "3/10          2.09",
        "Burst": "10/10         1649",
        "Impact": "7/10          50.0",
        "MotoCAP Breathability Rating": "\u2be8            0.084",
        "Moisture Vapour Resistance": "-           202.6",
        "Thermal Resistance": "-           0.282",
        "Water resistance": "10/10           0.4"
    },
    "materials": {
        "A": {
            "code": "A",
            "avg": 5.44,
            "vals": [
                "3.64",
                "5.65",
                "5.11",
                "6.55",
                "5.26",
                "6.43"
            ],
            "desc": "Double waxed woven fabric shell with fabric inner liner"
        },
        "B": {
            "code": "B",
            "avg": 1.35,
            "vals": [
                "1.37",
                "1.00",
                "1.64",
                "1.10",
                "1.31",
                "1.68"
            ],
            "desc": "Waxed woven fabric shell with fabric inner liner"
        }
    },
    "abrasion": {
        "rating": 3.0,
        "result": 2.09
    },
    "burst": {
        "rating": 10.0,
        "result": 1649.0
    },
    "impact": {
        "rating": 7.0,
        "result": 50.0
    },
    "moisture_vapour_resistance": "-           202.6",
    "thermal_resistance": "-           0.282",
    "file": "reports/J23T38__Belstaff__Ariel__Pro__Waxed__Cotton__Textile__Jacket.txt"
}