{
    "head": {
        " ": "This MotoCAP safety rating applies to:",
        "Brand": "Dainese",
        "Model": "D-Explorer 2",
        "Type": "Jacket - Textile",
        "Date purchased": "5 May 2023",
        "Sizes tested": "54 and 56",
        "Test garment gender": "Male",
        "Style": "Tourer",
        "RRP": "$1,449.00",
        "Test Results Summary": "Rating          Score",
        "MotoCAP Protection Rating": "\u2605\u2605           29.5",
        "Abrasion": "1/10         1.26",
        "Burst": "9/10         953",
        "Impact": "6/10         45.8",
        "MotoCAP Breathability Rating": "\u2605\u2605          0.371",
        "Moisture Vapour Resistance": "-          71.2",
        "Thermal Resistance": "-         0.440",
        "Water resistance": "3/10         18.8"
    },
    "materials": {
        "A": {
            "code": "A",
            "avg": 1.58,
            "vals": [
                "2.24",
                "0.98",
                "1.09",
                "2.59",
                "1.44",
                "1.15"
            ],
            "desc": "Super fabric shell with mesh inner liner"
        },
        "B": {
            "code": "B",
            "avg": 0.53,
            "vals": [
                "1.00",
                "0.35",
                "0.58",
                "0.45",
                "0.38",
                "0.44"
            ],
            "desc": "Woven fabric shell with mesh inner liner"
        },
        "C": {
            "code": "C",
            "avg": 1.68,
            "vals": [
                "1.24",
                "1.71",
                "1.90",
                "1.15",
                "2.02",
                "2.08"
            ],
            "desc": "Woven fabric shell, vent mesh layer with mesh inner liner"
        }
    },
    "abrasion": {
        "rating": 1.0,
        "result": 1.26
    },
    "burst": {
        "rating": 9.0,
        "result": 953.0
    },
    "impact": {
        "rating": 6.0,
        "result": 45.8
    },
    "moisture_vapour_resistance": "-          71.2",
    "thermal_resistance": "-         0.440",
    "file": "reports/J23T21__-__Dainese__D-Explorer__2__Textile__Jacket.txt"
}