{
    "head": {
        " ": "This MotoCAP safety rating applies to:",
        "Brand": "MotoDry",
        "Model": "4 Seasons Woman",
        "Type": "Textile Jacket",
        "Date purchased": "22 January 2024",
        "Sizes tested": "12 and 16",
        "Test garment gender": "Female",
        "Style": "All Purpose",
        "RRP": "$249.95",
        "Test Results Summary": "Rating        Score",
        "MotoCAP Protection Rating": "\u2605             22.2",
        "Abrasion": "1/10          0.41",
        "Burst": "10/10         1191",
        "Impact": "4/10          27.4",
        "MotoCAP Breathability Rating": "\u2be8            0.085",
        "Moisture Vapour Resistance": "-           169.0",
        "Thermal Resistance": "-           0.238",
        "Water resistance": "1/10           25.7"
    },
    "materials": {
        "A": {
            "code": "A",
            "avg": 3.24,
            "vals": [
                "4.08",
                "2.23",
                "4.76",
                "1.91"
            ],
            "desc": "Woven fabric shell, quilted layer with mesh inner liner"
        },
        "B": {
            "code": "B",
            "avg": 0.34,
            "vals": [
                "0.56",
                "0.29",
                "0.32",
                "0.32",
                "0.26",
                "0.29"
            ],
            "desc": "Woven fabric shell with mesh inner liner"
        },
        "C": {
            "code": "C",
            "avg": 0.56,
            "vals": [
                "0.82",
                "0.49",
                "0.50",
                "0.60",
                "0.50",
                "0.46"
            ],
            "desc": "Mesh fabric shell with mesh inner liner"
        }
    },
    "abrasion": {
        "rating": 1.0,
        "result": 0.41
    },
    "burst": {
        "rating": 10.0,
        "result": 1191.0
    },
    "impact": {
        "rating": 4.0,
        "result": 27.4
    },
    "moisture_vapour_resistance": "-           169.0",
    "thermal_resistance": "-           0.238",
    "file": "reports/J24T23__-__MotoDry__4__Seasons__Woman__Textile__Jacket___282_29.txt"
}