{
    "head": {
        " ": "Thermal",
        "Brand": "Rev'it",
        "Model": "Eclipse 2 Ladies",
        "Type": "Textile Jacket",
        "Date purchased": "14 February 2024",
        "Sizes tested": "34 and 42",
        "Test garment gender": "Female",
        "Style": "All Purpose",
        "RRP": "$318.95",
        "Test Results Summary": "Rating       Score",
        "MotoCAP Protection Rating": "\u2605\u2605            29.7",
        "Abrasion": "1/10         0.49",
        "Burst": "10/10        1163",
        "Impact": "7/10         52.1",
        "MotoCAP Breathability Rating": "\u2605\u2605           0.390",
        "Moisture Vapour Resistance": "-           31.5",
        "Thermal Resistance": "-          0.205",
        "Water resistance": "N/A          N/A"
    },
    "materials": {
        "A": {
            "code": "A",
            "avg": 0.5,
            "vals": [
                "0.71",
                "0.46",
                "0.51",
                "0.53",
                "0.33",
                "0.44"
            ],
            "desc": "Woven fabric shell with mesh inner liner"
        },
        "B": {
            "code": "B",
            "avg": 0.47,
            "vals": [
                "0.46",
                "0.50",
                "0.28",
                "0.67",
                "0.56",
                "0.38"
            ],
            "desc": "Mesh fabric shell with mesh inner liner"
        }
    },
    "abrasion": {
        "rating": 1.0,
        "result": 0.49
    },
    "burst": {
        "rating": 10.0,
        "result": 1163.0
    },
    "impact": {
        "rating": 7.0,
        "result": 52.1
    },
    "moisture_vapour_resistance": "-           31.5",
    "thermal_resistance": "-          0.205",
    "file": "reports/J24T24__-__Rev_27it__Eclipse__2__Ladies__Textile__Jacket.txt"
}