{
    "head": {
        " ": "",
        "Brand": "Macna",
        "Model": "Tazar",
        "Type": "Jacket - Textile",
        "Date purchased": "19 June 2024",
        "Sizes tested": "L and XL",
        "Test garment gender": "Male",
        "Style": "All Purpose",
        "RRP": "$249.95",
        "Test Results Summary": "Rating        Score",
        "MotoCAP Protection Rating": "\u2605\u2605             29.2",
        "Abrasion": "1/10          0.87",
        "Burst": "10/10         1061",
        "Impact": "6/10          47.3",
        "MotoCAP Breathability Rating": "\u2be8            0.065",
        "Moisture Vapour Resistance": "-           274.1",
        "Thermal Resistance": "-           0.298",
        "Water resistance": "7/10            6.8"
    },
    "materials": {
        "A": {
            "code": "A",
            "avg": 0.87,
            "vals": [
                "1.04",
                "0.82",
                "0.86",
                "1.10",
                "0.61",
                "0.80"
            ],
            "desc": "Woven fabric shell, water-resistant layer and mesh inner liner"
        }
    },
    "abrasion": {
        "rating": 1.0,
        "result": 0.87
    },
    "burst": {
        "rating": 10.0,
        "result": 1061.0
    },
    "impact": {
        "rating": 6.0,
        "result": 47.3
    },
    "moisture_vapour_resistance": "-           274.1",
    "thermal_resistance": "-           0.298",
    "file": "reports/J24T38__-__Macna__Tazar__Textile__Jacket.txt"
}