{
    "head": {
        " ": "This MotoCAP safety rating applies to:",
        "Brand": "Dririder",
        "Model": "Nordic V airflow",
        "Type": "Textile Jacket",
        "Date purchased": "13 March 2024",
        "Sizes tested": "L and XL",
        "Test garment gender": "Male",
        "Style": "Tourer",
        "RRP": "$399.95",
        "Test Results Summary": "Rating        Score",
        "MotoCAP Protection Rating": "\u2605\u2605\u2605             49.0",
        "Abrasion": "8/10          5.69",
        "Burst": "10/10         1200",
        "Impact": "4/10          28.5",
        "MotoCAP Breathability Rating": "\u2605            0.253",
        "Moisture Vapour Resistance": "-            67.9",
        "Thermal Resistance": "-           0.286",
        "Water resistance": "6/10            8.6"
    },
    "materials": {
        "A": {
            "code": "A",
            "avg": 9.16,
            "vals": [
                "7.57",
                "9.41",
                "10.00",
                "10.00",
                "10.00",
                "8.00"
            ],
            "desc": "Leather shell with mesh inner liner"
        },
        "B": {
            "code": "B",
            "avg": 0.83,
            "vals": [
                "0.71",
                "0.89",
                "1.04",
                "0.74",
                "0.69",
                "0.92"
            ],
            "desc": "Woven fabric shell with mesh inner liner"
        },
        "C": {
            "code": "C",
            "avg": 0.43,
            "vals": [
                "0.45",
                "0.44",
                "0.39",
                "0.47",
                "0.53",
                "0.29"
            ],
            "desc": "Mesh fabric shell with mesh inner liner"
        }
    },
    "abrasion": {
        "rating": 8.0,
        "result": 5.69
    },
    "burst": {
        "rating": 10.0,
        "result": 1200.0
    },
    "impact": {
        "rating": 4.0,
        "result": 28.5
    },
    "moisture_vapour_resistance": "-            67.9",
    "thermal_resistance": "-           0.286",
    "file": "reports/J24T34__-__Dririder__Nordic__V__airflow__Textile__Jacket.txt"
}