{
    "head": {
        " ": "Thermal li",
        "Brand": "Ricondi",
        "Model": "Ladies Racing Series V5",
        "Type": "Jacket - Leather",
        "Date purchased": "30 August 2024",
        "Sizes tested": "10",
        "Test garment gender": "Female",
        "Style": "All Purpose",
        "RRP": "$595.00",
        "Test Results Summary": "Rating         Score",
        "MotoCAP Protection Rating": "\u2605\u2605\u2605\u2605\u2605            65.5",
        "Abrasion": "10/10           7.22",
        "Burst": "10/10          1126",
        "Impact": "8/10           60.3",
        "MotoCAP Breathability Rating": "\u2be8            0.123",
        "Moisture Vapour Resistance": "-           133.1",
        "Thermal Resistance": "-           0.272",
        "Water resistance": "N/A            N/A"
    },
    "materials": {
        "A": {
            "code": "A",
            "avg": 10.0,
            "vals": [
                "10.00",
                "10.00",
                "10.00",
                "10.00",
                "10.00",
                "10.00"
            ],
            "desc": "Hard-shell armour over leather shell"
        },
        "B": {
            "code": "B",
            "avg": 6.19,
            "vals": [
                "4.84",
                "5.47",
                "4.41",
                "7.16",
                "7.95",
                "7.28"
            ],
            "desc": "Leather shell with mesh inner liner"
        },
        "C": {
            "code": "C",
            "avg": 4.58,
            "vals": [
                "6.30",
                "5.73",
                "2.81",
                "3.99",
                "4.09"
            ],
            "desc": "Perforated leather shell with mesh inner liner"
        }
    },
    "abrasion": {
        "rating": 10.0,
        "result": 7.22
    },
    "burst": {
        "rating": 10.0,
        "result": 1126.0
    },
    "impact": {
        "rating": 8.0,
        "result": 60.3
    },
    "moisture_vapour_resistance": "-           133.1",
    "thermal_resistance": "-           0.272",
    "file": "reports/J25L05__-__Ricondi__Ladies__Racing__Series__V5.txt"
}