                                                           This MotoCAP safety rating applies to:
                                                           Brand                    PANDO MOTO
                                                           Model                    SHELL WW BLACK 02
                                                           Type                     Jacket - Textile
                                                           Date purchased           4 December 2024
                                                           Sizes tested             M and L
                                                           Test garment gender      Female
                                                           Style                    All Purpose
                                                           RRP                      $519.00


                                                           Test Results Summary               Rating        Score
                                                           MotoCAP Protection Rating           ★             21.3
                                                           Abrasion                           2/10           1.75
                                                           Burst                              3/10           378
                                                           Impact                             4/10           29.4
                                                           MotoCAP Breathability Rating     ★★★★            0.624
                                                           Moisture Vapour Resistance           -            11.7
                                                           Thermal Resistance                   -           0.122
                                                           Water resistance                    N/A           N/A
This garment is fitted with impact protectors for the elbows and shoulders. A pocket is provided for an
aftermarket back protector. Replacing the elbow and shoulder armour with higher performing impact
protectors would improve the protection levels of this garment. There are no vents to allow airflow
movement through the garment.




Jacket and Pants - Crash Impact Risk Zones
This diagram is a pictorial representation of the crash impact risk Zones.



                                                                      Removable liners
                                                                      Thermal liner
                                                                      Water resistant liner

                                                                      Removable impact protection
                                                                                     Pockets       Armour
                                                                      Elbow                         
                                                                      Shoulder                      
                                                                      Back             
                                                                      Chest




          Zone 1                      Zone 2                      Zone 3                        Zone 4

   High risk of abrasion       High risk of abrasion     Medium risk of abrasion          Low risk of abrasion
    High risk of impact

                                     PANDO MOTO SHELL WW BLACK 02
Page 1 of 5                                  Textile Jacket                                      motocap.com.au
Abrasion Resistance
The jacket was tested for abrasion resistance in accordance with MotoCAP test protocols. The diagram
below is a visual indication of the likely abrasion performance of the materials in each zone calculated from
the data in the table below. The colour coding is based on the worst performing material in each zone.




                                                                     Abrasion Resistance Performance
                                                                     Abrasion rating      2/10
                                                                     Abrasion score       1.75




Determining Criteria    Area             Good       Acceptable     Marginal       Poor
High abrasion risk      Zone 1 & 2       > 5.6       3.0 - 5.6     1.3 - 2.9      < 1.3
Medium abrasion risk    Zone 3           > 2.5       1.8 - 2.5     0.8 - 1.7      < 0.8
Low abrasion risk       Zone 4           >1.5        1.0 - 1.5     0.4 - 0.9      < 0.4

Individual Abrasion Resistance Results: - The table below shows the test results for time to abrade through
all layers of the materials. Calculated for each sample by Zone, type and area coverage of each material as a
proportion of that Zone. Abrasion times are capped at a maximum of 10.00s.

Abrasion time for each test (seconds)
Zone 1 & 2        Coverage (%) Sample 1 Sample 2 Sample 3 Sample 4 Sample 5 Sample 6              Average
Material A        100%             3.76   2.10     0.62     2.83     1.91     0.70                 1.99   M

Zone 3           Coverage (%) Sample 1 Sample 2 Sample 3 Sample 4 Sample 5 Sample 6               Average
Material A       100%           3.76     2.10     0.62     2.83     1.91     0.70                  1.99   A

Zone 4           Coverage (%) Sample 1 Sample 2 Sample 3 Sample 4 Sample 5 Sample 6               Average
Material A       10%            3.76     2.10     0.62     2.83     1.91     0.70                  1.99   G
Material B       90%            0.30     0.23     0.12     0.39     0.21     0.08                  0.22   P
Details of materials used in jacket
Material A       Thick stretch fabric shell
Material B       Stretch fabric shell




                                     PANDO MOTO SHELL WW BLACK 02
Page 2 of 5                                  Textile Jacket                                  motocap.com.au
Burst Strength
The jacket was tested for burst strength in accordance with MotoCAP test protocols. The diagram below
illustrates the burst strength results in terms of the likely performance of the garment in an impact and is a
pictorial representation of the data from the table below.




                                                                          Burst Strength Performance
                                                                          Burst rating     3/10
                                                                          Burst score       378




Determining Criteria        Unit         Good        Acceptable     Marginal       Poor
Burst strength             (kPa)        > 1000       800 - 1000    500 - 799       < 500
Individual Burst Strength Results: - The table below shows the burst pressure in kilopascals (kPA) for each
sample tested by Zone and the average result for each zone.
Burst pressure for each seam (kPA)
Area         Sample 1      Sample 2       Sample 3      Sample 4      Sample 5      Sample 6      Average
Zones 1 & 2 604            265            294           275           412           460           385         P
Zones 3 & 4 429            287            316           265           381           429           351         P




                                      PANDO MOTO SHELL WW BLACK 02
Page 3 of 5                                   Textile Jacket                                   motocap.com.au
Impact Protection
The jacket was tested for impact protection and coverage in accordance with MotoCAP test protocols. The
diagram below is a visual indication of the likely performance of each impact protector calculated from the
data in the table below. The colour coding is based on the worst performing score for average or maximum
force for each impact zone. Areas shaded black are not considered for impact protection ratings.




                                                                               Impact Protection Performance
                                                                               Impact rating    4/10
                                                                               Impact score     29.4




Determining Criteria         Unit            Good       Acceptable      Marginal         Poor*
Impact force                 (kN)            < 15         15 - 24        25 - 30         > 30
* Poor may also indicate that no impact protector, or impact protector pocket is present in the garment


Individual Impact Protector Results: - The table below shows the test results for each strike on each impact
protector in kilonewtons (kN) and their area of coverage as a proportion (%) of the Zone. Individual strike
results are capped at a maximum of 50kN.
Impact protector type                        Elbow                                          Shoulder
Average force (kN)                            25.5       M                                    24.8         A
Maximum force (kN)                            26.4       M                                    25.6         M
Coverage of Zone 1 area                       90%                                            100%
Coverage of Zone after displacement           90%                                             80%

Individual Impact Protector Results: - The table below shows the test results for each strike on individual
impact protectors in kilonewtons (kN) and the position of the strike. Individual strike results are capped at a
maximum of 50kN.
Force transfer for each impact strike (kN)
Impact protector type       Elbow                                            Shoulder
Strike location             Centre            Mid            Edge             Centre             Mid           Edge
Impact Protector 1           26.4             25.8           25.3              24.3              23.6          25.1
Impact Protector 2           24.9             26.0           25.0              24.9              25.3          25.6
Impact Protector 3           25.1             25.7           24.9              24.2              25.4          24.3




                                       PANDO MOTO SHELL WW BLACK 02
Page 4 of 5                                    Textile Jacket                                           motocap.com.au
Breathability
The jacket was tested for breathability following the MotoCAP test protocols. The table below shows the
moisture vapour resistance and the thermal resistance values obtained.
Without removable liners                                   With water-resistant liner
Breathability rating  ★★★★                                 Breathability rating       N/A
Breathability score      0.624                             Breathability score        N/A

Moisture Vapour Resistance - Ret (kPa.m2/W)          1               2          Average
Without removable liners                            12.4            11.1         11.7
With water-resistant liner                          N/A             N/A           N/A

Thermal Resistance - Rct (K.m2/W)                     1               2         Average
Without removable liners                            0.117           0.127        0.122
With water-resistant liner                           N/A             N/A          N/A

Water spray and rain resistance
This jacket has not been advertised as water-resistant so has not been tested for water spray and rain
resistance.




   Assessment Details.
   Brand                            PANDO MOTO
   Model                            SHELL WW BLACK 02
   Type                             Jacket - Textile
   Date purchased                   4 December 2024
   Tested by                        AMCAF, Deakin University
   Report approved by               MotoCAP Chief Scientist
   Garment test reference           J25T16
   Rating first published           February 2025
   Rating updated                   17 February 2025


                                      PANDO MOTO SHELL WW BLACK 02
Page 5 of 5                                   Textile Jacket                                motocap.com.au
