{
    "head": {
        " ": "",
        "Brand": "Harley Davidson",
        "Model": "Operative 2.0",
        "Type": "Jacket - Textile",
        "Date purchased": "14 October 2024",
        "Sizes tested": "L,M,",
        "Test garment gender": "Male",
        "Style": "Adventure",
        "RRP": "$511.40",
        "Test Results Summary": "Rating        Score",
        "MotoCAP Protection Rating": "\u2605             26.2",
        "Abrasion": "1/10           0.38",
        "Burst": "9/10           981",
        "Impact": "7/10           48.2",
        "MotoCAP Breathability Rating": "\u2605\u2605\u2605            0.446",
        "Moisture Vapour Resistance": "-            22.2",
        "Thermal Resistance": "-           0.165",
        "Water resistance": "N/A           N/A"
    },
    "materials": {
        "A": {
            "code": "A",
            "avg": 1.23,
            "vals": [
                "1.24",
                "1.24",
                "1.25",
                "1.48",
                "1.18",
                "1.01"
            ],
            "desc": "Woven fabric shell, thick mesh layer and mesh inner liner"
        },
        "B": {
            "code": "B",
            "avg": 0.3,
            "vals": [
                "0.28",
                "0.24",
                "0.41",
                "0.38",
                "0.14",
                "0.36"
            ],
            "desc": "Woven fabric shell"
        }
    },
    "abrasion": {
        "rating": 1.0,
        "result": 0.38
    },
    "burst": {
        "rating": 9.0,
        "result": 981.0
    },
    "impact": {
        "rating": 7.0,
        "result": 48.2
    },
    "moisture_vapour_resistance": "-            22.2",
    "thermal_resistance": "-           0.165",
    "file": "reports/J25T13__-____Harley__Davidson__Operative__2.0__Textile__Jacket.txt"
}