{
    "head": {
        " ": "Test Results Summary:",
        "Brand": "Draggin Jeans",
        "Model": "Twista",
        "Type": "Pants - Denim",
        "Date purchased": "3 August 2019",
        "Sizes tested": "14 (Female) & 38 (Male)",
        "Gender": "M&F",
        "Style": "All Purpose",
        "Test code": "P19D06",
        "Rating": "Score",
        "MotoCAP Protection Rating": "\uf0ea\uf0ea           39.6",
        "Abrasion": "7/10        5.26",
        "Burst": "10/10       1330",
        "Impact": "0/10         0.0",
        "MotoCAP Comfort Rating": "\uf0ea\uf0ea\uf0ea\uf0ea         0.555",
        "Moisture Vapour Resistance": "22.4",
        "Thermal Resistance": "0.207",
        "Water resistance": "N/A         N/A",
        "Zone 1": "Zone 2                      Zone 3                      Zone 4",
        "High risk of abrasion": "Hi"
    },
    "materials": {
        "A": {
            "code": "A",
            "desc": "Denim fabric shell, aramid fabric layer with mesh inner liner",
            "avg": 7.86,
            "vals": [
                "8.38",
                "8.55",
                "6.59",
                "7.28",
                "8.40",
                "7.96"
            ]
        },
        "B": {
            "code": "B",
            "desc": "Denim fabric shell with mesh liner",
            "avg": 0.68,
            "vals": [
                "0.92",
                "1.07",
                "0.55",
                "0.63",
                "0.46",
                "0.47"
            ]
        }
    },
    "abrasion": {
        "rating": 7.0,
        "result": 5.26
    },
    "burst": {
        "rating": 10.0,
        "result": 1330.0
    },
    "impact": {
        "rating": 0.0,
        "result": 0.0
    },
    "moisture_vapour_resistance": 22.4,
    "thermal_resistance": 0.207,
    "file": "reports/P19D06__Draggin__Jeans__Twista__Denim__Jeans_0.txt"
}