{
    "head": {
        " ": "",
        "Brand": "Dainese",
        "Model": "Assen Ladies",
        "Type": "Pants - Leather",
        "Date purchased": "26 March 2020",
        "Sizes tested": "46 and 48",
        "Test garment gender": "Female",
        "Style": "All Purpose",
        "RRP": "$499.96",
        "Test Results Summary": "Rating         Score",
        "MotoCAP Protection Rating": "\u2605             27.1",
        "Abrasion": "3/10          2.74",
        "Burst": "10/10         1341",
        "Impact": "1/10           0.0",
        "MotoCAP Breathability Rating": "\u2605\u2605            0.341",
        "Moisture Vapour Resistance": "-             33.0",
        "Thermal Resistance": "-            0.188",
        "Water resistance": "N/A            N/A"
    },
    "materials": {
        "A": {
            "code": "A",
            "avg": 2.8,
            "vals": [
                "3.19",
                "3.03",
                "2.68",
                "2.98",
                "2.55",
                "2.36"
            ],
            "desc": "Leather shell with mesh inner liner"
        },
        "B": {
            "code": "B",
            "avg": 1.65,
            "vals": [
                "1.50",
                "1.57",
                "1.84",
                "1.68",
                "2.06",
                "1.26"
            ],
            "desc": "Stretch fabric shell with mesh inner liner"
        }
    },
    "abrasion": {
        "rating": 3.0,
        "result": 2.74
    },
    "burst": {
        "rating": 10.0,
        "result": 1341.0
    },
    "impact": {
        "rating": 1.0,
        "result": 0.0
    },
    "moisture_vapour_resistance": "-             33.0",
    "thermal_resistance": "-            0.188",
    "file": "reports/P19L04__Dainese__Assen__Ladies__Leather__Pants.txt"
}