{
    "head": {
        " ": "This MotoCAP safety rating applies to:",
        "Brand": "Rjays",
        "Model": "All Seasons III",
        "Type": "Pants - Textile",
        "Date purchased": "16 November 2019",
        "Sizes tested": "XL and 2XL",
        "Test garment gender": "Male",
        "Style": "All Purpose",
        "RRP": "$189.95",
        "Test Results Summary": "Rating          Score",
        "MotoCAP Protection Rating": "\u2be8             11.1",
        "Abrasion": "1/10          0.36",
        "Burst": "9/10          935",
        "Impact": "1/10           0.0",
        "MotoCAP Breathability Rating": "\u2605\u2605           0.382",
        "Moisture Vapour Resistance": "-           29.5",
        "Thermal Resistance": "-          0.188",
        "Water resistance": "1/10          69.7"
    },
    "materials": {
        "A": {
            "code": "A",
            "avg": 0.38,
            "vals": [
                "0.39",
                "0.36",
                "0.34",
                "0.31",
                "0.46",
                "0.43"
            ],
            "desc": "Woven fabric shell with mesh inner liner"
        },
        "B": {
            "code": "B",
            "avg": 0.35,
            "vals": [
                "0.39",
                "0.37",
                "0.31",
                "0.34",
                "0.39",
                "0.28"
            ],
            "desc": "Mesh fabric shell with mesh inner liner"
        }
    },
    "abrasion": {
        "rating": 1.0,
        "result": 0.36
    },
    "burst": {
        "rating": 9.0,
        "result": 935.0
    },
    "impact": {
        "rating": 1.0,
        "result": 0.0
    },
    "moisture_vapour_resistance": "-           29.5",
    "thermal_resistance": "-          0.188",
    "file": "reports/P19T11__Rjays__All__Seasons__III__Textile__Pants.txt"
}