{
    "head": {
        " ": "",
        "Brand": "Motogirl",
        "Model": "Ribbed Knee Legging",
        "Type": "Pants - Textile",
        "Date purchased": "6 July 2020",
        "Sizes tested": "14 and 16",
        "Test garment gender": "Female",
        "Style": "All Purpose",
        "RRP": "$279.00",
        "Test Results Summary": "Rating         Score",
        "MotoCAP Protection Rating": "\u2be8              9.4",
        "Abrasion": "1/10           0.26",
        "Burst": "8/10           811",
        "Impact": "1/10            0.0",
        "MotoCAP Breathability Rating": "\u2605\u2605\u2605\u2605            0.577",
        "Moisture Vapour Resistance": "-             23.3",
        "Thermal Resistance": "-            0.224",
        "Water resistance": "N/A            N/A"
    },
    "materials": {
        "A": {
            "code": "A",
            "avg": 2.06,
            "vals": [
                "2.09",
                "1.89",
                "1.88",
                "1.81",
                "2.28",
                "2.40"
            ],
            "desc": "Stretch fabric shell, aramid layer and stretch fabric inner liner"
        },
        "B": {
            "code": "B",
            "avg": 0.84,
            "vals": [
                "0.95",
                "0.91",
                "0.54",
                "0.98",
                "0.91",
                "0.80"
            ],
            "desc": "Stretch fabric outshell and Stretch fabric liner"
        }
    },
    "abrasion": {
        "rating": 1.0,
        "result": 0.26
    },
    "burst": {
        "rating": 8.0,
        "result": 811.0
    },
    "impact": {
        "rating": 1.0,
        "result": 0.0
    },
    "moisture_vapour_resistance": "-             23.3",
    "thermal_resistance": "-            0.224",
    "file": "reports/P19T18__Motogirl__Ribbed__Knee__Legging__Textile__Pants.txt"
}