{
    "head": {
        " ": "Test Results Summary:",
        "Brand": "Alpinestars",
        "Model": "Stella Andes V2 Drystar",
        "Type": "Pants - Textile",
        "Date purchased": "26 August 2019",
        "Sizes tested": "XL",
        "Gender": "F",
        "Style": "All Purpose",
        "Test code": "P19T09",
        "Rating": "Score",
        "MotoCAP Protection Rating": "\uf0ea          15.7",
        "Abrasion": "1/10        0.41",
        "Burst": "10/10       1370",
        "Impact": "1/10         0.0",
        "MotoCAP Comfort Rating": "\uf0ea\uf0ea          0.309",
        "Moisture Vapour Resistance": "55.2",
        "Thermal Resistance": "0.285",
        "Water resistance": "9/10         1.8"
    },
    "materials": {
        "A": {
            "code": "A",
            "desc": "High density woven fabric shell, water-resistant layer and mesh inner liner",
            "avg": 1.06,
            "vals": [
                "1.21",
                "1.03",
                "0.87",
                "1.28",
                "0.99",
                "0.96"
            ]
        },
        "B": {
            "code": "B",
            "desc": "Woven fabric shell, water-resistant layer and mesh inner liner",
            "avg": 0.5,
            "vals": [
                "0.31",
                "0.52",
                "0.56",
                "0.55",
                "0.49",
                "0.55"
            ]
        }
    },
    "abrasion": {
        "rating": 1.0,
        "result": 0.41
    },
    "burst": {
        "rating": 10.0,
        "result": 1370.0
    },
    "impact": {
        "rating": 1.0,
        "result": 0.0
    },
    "moisture_vapour_resistance": 55.2,
    "thermal_resistance": 0.285,
    "file": "reports/P19T09__Alpinestars__Stella__Andes__V2__Drystar__Textile__Pants.txt"
}