{
    "head": {
        " ": "This MotoCAP safety rating applies to:",
        "Brand": "Scott",
        "Model": "Storm DP",
        "Type": "Pants - Textile",
        "Date purchased": "9 March 2020",
        "Sizes tested": "2XL",
        "Test garment gender": "Male",
        "Style": "All Purpose",
        "RRP": "$269.00",
        "Test Results Summary": "Rating         Score",
        "MotoCAP Protection Rating": "\u2605             18.3",
        "Abrasion": "1/10          0.87",
        "Burst": "10/10         1392",
        "Impact": "1/10           0.0",
        "MotoCAP Breathability Rating": "\u2605\u2605\u2605            0.428",
        "Moisture Vapour Resistance": "-            39.2",
        "Thermal Resistance": "-           0.280",
        "Water resistance": "9/10            2.4"
    },
    "materials": {
        "A": {
            "code": "A",
            "avg": 0.87,
            "vals": [
                "0.79",
                "0.53",
                "1.02",
                "1.10",
                "0.86",
                "0.96"
            ],
            "desc": "Woven fabric shell, water-resistance layer and mesh inner liner"
        }
    },
    "abrasion": {
        "rating": 1.0,
        "result": 0.87
    },
    "burst": {
        "rating": 10.0,
        "result": 1392.0
    },
    "impact": {
        "rating": 1.0,
        "result": 0.0
    },
    "moisture_vapour_resistance": "-            39.2",
    "thermal_resistance": "-           0.280",
    "file": "reports/P19T14__Scott__Storm__DP__Textile__Pants.txt"
}