{
    "head": {
        " ": "Test Results Summary:",
        "Brand": "Rjays",
        "Model": "Voyager V Ladies",
        "Type": "Pants - Textile",
        "Date purchased": "26 August 2019",
        "Sizes tested": "XL and 2XL",
        "Gender": "F",
        "Style": "Tourer",
        "Test code": "P19T07",
        "Rating": "Score",
        "MotoCAP Protection Rating": "\u2be8          11.9",
        "Abrasion": "1/10       0.33",
        "Burst": "10/10      1060",
        "Impact": "0/10        0.0",
        "MotoCAP Comfort Rating": "\uf0ea        0.244",
        "Moisture Vapour Resistance": "59.7",
        "Thermal Resistance": "0.242",
        "Water resistance": "3/10         17",
        "Zone 1": "Zone 2                      Zone 3                      Zone 4",
        "High risk of abrasion": "High risk of abrasion     Medium risk of"
    },
    "materials": {
        "A": {
            "code": "A",
            "desc": "Woven fabric shell, water-resistant layer and mesh inner liner",
            "avg": 0.33,
            "vals": [
                "0.46",
                "0.24",
                "0.30",
                "0.43",
                "0.23",
                "0.31"
            ]
        }
    },
    "abrasion": {
        "rating": 1.0,
        "result": 0.33
    },
    "burst": {
        "rating": 10.0,
        "result": 1060.0
    },
    "impact": {
        "rating": 0.0,
        "result": 0.0
    },
    "moisture_vapour_resistance": 59.7,
    "thermal_resistance": 0.242,
    "file": "reports/P19T07__Rjays__Voyager__V__Ladies__Textile__Pants.txt"
}