{
    "head": {
        " ": "",
        "Brand": "Bull-it",
        "Model": "Slim Tactical Eclipse Ladies",
        "Type": "Pants - Denim",
        "Date purchased": "19 October 2021",
        "Sizes tested": "14 and 16",
        "Test garment gender": "Female",
        "Style": "All Purpose",
        "RRP": "$199.95",
        "Test Results Summary": "Rating         Score",
        "MotoCAP Protection Rating": "\u2605             25.8",
        "Abrasion": "1/10           0.49",
        "Burst": "7/10           784",
        "Impact": "7/10           51.6",
        "MotoCAP Breathability Rating": "\u2605\u2605\u2605\u2605            0.601",
        "Moisture Vapour Resistance": "-             18.7",
        "Thermal Resistance": "-            0.187",
        "Water resistance": "N/A            N/A"
    },
    "materials": {
        "A": {
            "code": "A",
            "avg": 0.49,
            "vals": [
                "0.39",
                "0.57",
                "0.38",
                "0.63",
                "0.57",
                "0.43"
            ],
            "desc": "Denim fabric shell"
        }
    },
    "abrasion": {
        "rating": 1.0,
        "result": 0.49
    },
    "burst": {
        "rating": 7.0,
        "result": 784.0
    },
    "impact": {
        "rating": 7.0,
        "result": 51.6
    },
    "moisture_vapour_resistance": "-             18.7",
    "thermal_resistance": "-            0.187",
    "file": "reports/P20D24__Bull-It__Slim__Tactical__Eclipse__Ladies__Denim__Pants.txt"
}