{
    "head": {
        " ": "This MotoCAP safety rating applies to:",
        "Brand": "Draggin",
        "Model": "NextGen",
        "Type": "Pants - Denim",
        "Date purchased": "16 August 2021",
        "Sizes tested": "36 and 38",
        "Test garment gender": "Male",
        "Style": "All Purpose",
        "RRP": "$269.00",
        "Test Results Summary": "Rating       Score",
        "MotoCAP Protection Rating": "\u2605\u2605           44.8",
        "Abrasion": "9/10        6.63",
        "Burst": "10/10       1161",
        "Impact": "1/10         0.0",
        "MotoCAP Breathability Rating": "\u2605\u2605\u2605\u2605          0.536",
        "Moisture Vapour Resistance": "-           26.1",
        "Thermal Resistance": "-          0.233",
        "Water resistance": "N/A          N/A"
    },
    "materials": {
        "A": {
            "code": "A",
            "avg": 10.0,
            "vals": [
                "10.00",
                "10.00",
                "10.00",
                "10.00",
                "10.00",
                "10.00"
            ],
            "desc": "Denim fabric shell, p-aramid fabric layer and mesh inner liner"
        },
        "B": {
            "code": "B",
            "avg": 0.38,
            "vals": [
                "0.37",
                "0.35",
                "0.30",
                "0.49",
                "0.40",
                "0.38"
            ],
            "desc": "Denim fabric shell with mesh inner liner"
        }
    },
    "abrasion": {
        "rating": 9.0,
        "result": 6.63
    },
    "burst": {
        "rating": 10.0,
        "result": 1161.0
    },
    "impact": {
        "rating": 1.0,
        "result": 0.0
    },
    "moisture_vapour_resistance": "-           26.1",
    "thermal_resistance": "-          0.233",
    "file": "reports/P20D20__Draggin__NextGen__Denim__Pants.txt"
}