{
    "head": {
        " ": "",
        "Brand": "Bull-It",
        "Model": "Tactical Icon II",
        "Type": "Pants - Denim",
        "Date purchased": "15 February 2022",
        "Sizes tested": "30 and 38",
        "Test garment gender": "Female",
        "Style": "All Purpose",
        "RRP": "$199.95",
        "Test Results Summary": "Rating         Score",
        "MotoCAP Protection Rating": "\u2605             27.2",
        "Abrasion": "1/10           0.71",
        "Burst": "8/10           867",
        "Impact": "7/10           50.1",
        "MotoCAP Breathability Rating": "\u2605\u2605\u2605            0.520",
        "Moisture Vapour Resistance": "-             24.7",
        "Thermal Resistance": "-            0.214",
        "Water resistance": "N/A            N/A"
    },
    "materials": {
        "A": {
            "code": "A",
            "avg": 2.17,
            "vals": [
                "2.41",
                "2.17",
                "1.90",
                "3.17",
                "1.73",
                "1.62"
            ],
            "desc": "Denim fabric shell, knitted fabric and mesh inner liner"
        },
        "B": {
            "code": "B",
            "avg": 0.92,
            "vals": [
                "1.11",
                "0.95",
                "0.74",
                "1.22",
                "0.81",
                "0.69"
            ],
            "desc": "Denim fabric shell"
        },
        "C": {
            "code": "C",
            "avg": 0.78,
            "vals": [
                "0.46",
                "0.73",
                "1.11",
                "0.75",
                "0.70",
                "0.95"
            ],
            "desc": "Denim fabric shell with mesh inner liner"
        }
    },
    "abrasion": {
        "rating": 1.0,
        "result": 0.71
    },
    "burst": {
        "rating": 8.0,
        "result": 867.0
    },
    "impact": {
        "rating": 7.0,
        "result": 50.1
    },
    "moisture_vapour_resistance": "-             24.7",
    "thermal_resistance": "-            0.214",
    "file": "reports/P20D28__Bull-it__Tactical__Icon__II__Denim__Pants.txt"
}