{
    "head": {
        " ": "",
        "Brand": "Rev'It",
        "Model": "Westwood Ladies SF",
        "Type": "Pants - Denim",
        "Date purchased": "25 May 2021",
        "Sizes tested": "27 and 32",
        "Test garment gender": "Female",
        "Style": "All Purpose",
        "RRP": "$239.99",
        "Test Results Summary": "Rating         Score",
        "MotoCAP Protection Rating": "\u2605             17.3",
        "Abrasion": "2/10          1.37",
        "Burst": "10/10         1043",
        "Impact": "1/10           0.0",
        "MotoCAP Breathability Rating": "\u2605\u2605\u2605            0.422",
        "Moisture Vapour Resistance": "-             39.2",
        "Thermal Resistance": "-            0.275",
        "Water resistance": "N/A            N/A"
    },
    "materials": {
        "A": {
            "code": "A",
            "avg": 3.11,
            "vals": [
                "3.73",
                "3.34",
                "3.21",
                "2.40",
                "1.92",
                "4.09"
            ],
            "desc": "Denim fabric shell, knitted fabric layer and fabric inner liner"
        },
        "B": {
            "code": "B",
            "avg": 0.35,
            "vals": [
                "0.46",
                "0.41",
                "0.32",
                "0.26",
                "0.33",
                "0.32"
            ],
            "desc": "Denim fabric shell with fabric inner liner"
        }
    },
    "abrasion": {
        "rating": 2.0,
        "result": 1.37
    },
    "burst": {
        "rating": 10.0,
        "result": 1043.0
    },
    "impact": {
        "rating": 1.0,
        "result": 0.0
    },
    "moisture_vapour_resistance": "-             39.2",
    "thermal_resistance": "-            0.275",
    "file": "reports/P20D14__Rev_27It__Westwood__Ladies__SF__Denim__Pants.txt"
}