{
    "head": {
        " ": "",
        "Brand": "Ixon",
        "Model": "Buckler",
        "Type": "Pants - Denim",
        "Date purchased": "23 February 2021",
        "Sizes tested": "XL and 2XL",
        "Test garment gender": "Male",
        "Style": "All Purpose",
        "RRP": "$269.96",
        "Test Results Summary": "Rating         Score",
        "MotoCAP Protection Rating": "\u2605             22.1",
        "Abrasion": "1/10           0.98",
        "Burst": "9/10           915",
        "Impact": "4/10           26.8",
        "MotoCAP Breathability Rating": "\u2605\u2605\u2605\u2605            0.587",
        "Moisture Vapour Resistance": "-             25.8",
        "Thermal Resistance": "-            0.253",
        "Water resistance": "N/A            N/A"
    },
    "materials": {
        "A": {
            "code": "A",
            "avg": 1.29,
            "vals": [
                "1.46",
                "1.44",
                "1.04",
                "1.42",
                "1.28",
                "1.09"
            ],
            "desc": "Denim fabric shell, p-aramid fabric layer and fabric inner liner"
        },
        "B": {
            "code": "B",
            "avg": 0.52,
            "vals": [
                "0.64",
                "0.46",
                "0.59",
                "0.41",
                "0.75",
                "0.29"
            ],
            "desc": "Denim fabric shell with fabric inner liner"
        }
    },
    "abrasion": {
        "rating": 1.0,
        "result": 0.98
    },
    "burst": {
        "rating": 9.0,
        "result": 915.0
    },
    "impact": {
        "rating": 4.0,
        "result": 26.8
    },
    "moisture_vapour_resistance": "-             25.8",
    "thermal_resistance": "-            0.253",
    "file": "reports/P20D08__Ixon__Buckler__Denim__Pants.txt"
}