{
    "head": {
        " ": "",
        "Brand": "Draggin",
        "Model": "Minx Ladies",
        "Type": "Pants - Denim",
        "Date purchased": "22 March 2021",
        "Sizes tested": "16",
        "Test garment gender": "Female",
        "Style": "All Purpose",
        "RRP": "$289.95",
        "Test Results Summary": "Rating         Score",
        "MotoCAP Protection Rating": "\u2605             24.4",
        "Abrasion": "4/10           3.39",
        "Burst": "7/10           741",
        "Impact": "0/10            0.0",
        "MotoCAP Breathability Rating": "\u2605\u2605\u2605            0.529",
        "Moisture Vapour Resistance": "-             19.5",
        "Thermal Resistance": "-            0.172",
        "Water resistance": "N/A            N/A"
    },
    "materials": {
        "A": {
            "code": "A",
            "avg": 5.41,
            "vals": [
                "5.42",
                "3.84",
                "5.81",
                "6.59",
                "5.05",
                "5.74"
            ],
            "desc": "Denim fabric shell with p-aramid inner liner"
        },
        "B": {
            "code": "B",
            "avg": 0.38,
            "vals": [
                "0.46",
                "0.34",
                "0.31",
                "0.31",
                "0.43",
                "0.40"
            ],
            "desc": "Denim fabric shell"
        }
    },
    "abrasion": {
        "rating": 4.0,
        "result": 3.39
    },
    "burst": {
        "rating": 7.0,
        "result": 741.0
    },
    "impact": {
        "rating": 0.0,
        "result": 0.0
    },
    "moisture_vapour_resistance": "-             19.5",
    "thermal_resistance": "-            0.172",
    "file": "reports/P20D13__Draggin__Minx__Ladies__Denim__Pants.txt"
}