{
    "head": {
        " ": "",
        "Brand": "Klim",
        "Model": "Baja S4",
        "Type": "Pants - Textile",
        "Date purchased": "20 October 2021",
        "Sizes tested": "38",
        "Test garment gender": "Male",
        "Style": "Tourer",
        "RRP": "$765.00",
        "Test Results Summary": "Rating         Score",
        "MotoCAP Protection Rating": "\u2605\u2605             38.4",
        "Abrasion": "3/10           2.16",
        "Burst": "10/10          1194",
        "Impact": "7/10           52.2",
        "MotoCAP Breathability Rating \u2605\u2605\u2605\u2605\u2605": "0.674",
        "Moisture Vapour Resistance": "-            19.6",
        "Thermal Resistance": "-           0.220",
        "Water resistance": "N/A            N/A"
    },
    "materials": {
        "A": {
            "code": "A",
            "avg": 1.53,
            "vals": [
                "1.46",
                "1.77",
                "1.64",
                "1.35",
                "1.47",
                "1.49"
            ],
            "desc": "Plastic dot coated woven fabric shell with mesh inner liner"
        },
        "B": {
            "code": "B",
            "avg": 0.74,
            "vals": [
                "0.73",
                "0.94",
                "0.63",
                "0.60",
                "0.78",
                "0.76"
            ],
            "desc": "Woven fabric shell with mesh inner liner"
        },
        "C": {
            "code": "C",
            "avg": 5.65,
            "vals": [
                "6.36",
                "5.32",
                "6.34",
                "5.93",
                "5.27",
                "4.67"
            ],
            "desc": "Perforated leather patch over woven fabric shell with fabric inner liner"
        },
        "D": {
            "code": "D",
            "avg": 4.2,
            "vals": [
                "2.97",
                "3.66",
                "3.67",
                "6.18",
                "4.97",
                "3.74"
            ],
            "desc": "Mesh fabric shell with mesh inner liner"
        }
    },
    "abrasion": {
        "rating": 3.0,
        "result": 2.16
    },
    "burst": {
        "rating": 10.0,
        "result": 1194.0
    },
    "impact": {
        "rating": 7.0,
        "result": 52.2
    },
    "moisture_vapour_resistance": "-            19.6",
    "thermal_resistance": "-           0.220",
    "file": "reports/P20T15__Klim__Baja__S4__Textile__Pants.txt"
}