{
    "head": {
        " ": "",
        "Brand": "Macna",
        "Model": "Club",
        "Type": "Pants - Textile",
        "Date purchased": "8 January 2021",
        "Sizes tested": "XL and 2XL",
        "Test garment gender": "Male",
        "Style": "All Purpose",
        "RRP": "$249.95",
        "Test Results Summary": "Rating         Score",
        "MotoCAP Protection Rating": "\u2605             15.3",
        "Abrasion": "1/10           1.27",
        "Burst": "8/10           890",
        "Impact": "1/10            0.0",
        "MotoCAP Breathability Rating": "\u2605\u2605            0.292",
        "Moisture Vapour Resistance": "-            62.5",
        "Thermal Resistance": "-           0.304",
        "Water resistance": "5/10           11.7"
    },
    "materials": {
        "A": {
            "code": "A",
            "avg": 4.08,
            "vals": [
                "3.36",
                "5.83",
                "3.88",
                "3.24"
            ],
            "desc": "Dense woven fabric shell, water resistant layer, mesh/foam pocket and mesh inner liner"
        },
        "B": {
            "code": "B",
            "avg": 1.2,
            "vals": [
                "0.64",
                "0.58",
                "4.03",
                "0.74",
                "0.56",
                "0.67"
            ],
            "desc": "Woven fabric shell, water resistant layer and mesh inner liner"
        }
    },
    "abrasion": {
        "rating": 1.0,
        "result": 1.27
    },
    "burst": {
        "rating": 8.0,
        "result": 890.0
    },
    "impact": {
        "rating": 1.0,
        "result": 0.0
    },
    "moisture_vapour_resistance": "-            62.5",
    "thermal_resistance": "-           0.304",
    "file": "reports/P20T03__Macna__Club__Textile__Pants.txt"
}