{
    "head": {
        " ": "Water-resistan",
        "Brand": "Klim",
        "Model": "Carlsbad",
        "Type": "Pants - Textile",
        "Date purchased": "17 May 2021",
        "Sizes tested": "36 and 40",
        "Test garment gender": "Male",
        "Style": "Tourer",
        "RRP": "$845.00",
        "Test Results Summary": "Rating       Score",
        "MotoCAP Protection Rating": "\u2605\u2605\u2605          41.8",
        "Abrasion": "2/10        1.60",
        "Burst": "10/10       1349",
        "Impact": "9/10        67.5",
        "MotoCAP Breathability Rating": "\u2605\u2605          0.401",
        "Moisture Vapour Resistance": "-          37.0",
        "Thermal Resistance": "-         0.247",
        "Water resistance": "8/10          4.9"
    },
    "materials": {
        "A": {
            "code": "A",
            "avg": 2.18,
            "vals": [
                "1.24",
                "1.25",
                "1.78",
                "1.45",
                "3.95",
                "3.39"
            ],
            "desc": "Heavy woven fabric shell, water-resistance layer and mesh inner liner"
        },
        "B": {
            "code": "B",
            "avg": 0.59,
            "vals": [
                "0.34",
                "0.35",
                "0.68",
                "0.40",
                "0.79",
                "0.97"
            ],
            "desc": "Fabric shell laminated with water-resistant layer and fabric inner liner"
        },
        "C": {
            "code": "C",
            "avg": 8.62,
            "vals": [
                "9.01",
                "8.85",
                "6.92",
                "9.68",
                "0.00",
                "0.00"
            ],
            "desc": "Leather shell, water-resistance layer and fabric inner liner"
        },
        "D": {
            "code": "D",
            "avg": 1.25,
            "vals": [
                "1.28",
                "1.77",
                "0.77",
                "1.17",
                "0.00",
                "0.00"
            ],
            "desc": "Fabric shell laminated with water-resistant layer over fabric layer"
        }
    },
    "abrasion": {
        "rating": 2.0,
        "result": 1.6
    },
    "burst": {
        "rating": 10.0,
        "result": 1349.0
    },
    "impact": {
        "rating": 9.0,
        "result": 67.5
    },
    "moisture_vapour_resistance": "-          37.0",
    "thermal_resistance": "-         0.247",
    "file": "reports/P20T12__Klim__Carlsbad__Textile__Pants.txt"
}