{
    "head": {
        " ": "This MotoCAP safety rating applies to:",
        "Brand": "RST",
        "Model": "Atlas CE Waterproof",
        "Type": "Pants - Textile",
        "Date purchased": "2 March 2022",
        "Sizes tested": "L and XL",
        "Test garment gender": "Male",
        "Style": "Tourer",
        "RRP": "$229.98",
        "Test Results Summary": "Rating         Score",
        "MotoCAP Protection Rating": "\u2605             22.4",
        "Abrasion": "2/10          1.55",
        "Burst": "10/10         1467",
        "Impact": "1/10           0.0",
        "MotoCAP Breathability Rating": "\u2605            0.231",
        "Moisture Vapour Resistance": "-            97.8",
        "Thermal Resistance": "-           0.376",
        "Water resistance": "9/10            1.1"
    },
    "materials": {
        "A": {
            "code": "A",
            "avg": 8.12,
            "vals": [
                "6.43",
                "10.00",
                "6.98",
                "5.87",
                "9.45",
                "10.00"
            ],
            "desc": "Woven fabric shell, water-resistant layer, foam layer and mesh inner liner"
        },
        "B": {
            "code": "B",
            "avg": 2.07,
            "vals": [
                "1.67",
                "2.17",
                "2.29",
                "2.07",
                "1.79",
                "2.44"
            ],
            "desc": "Woven fabric shell, laminated fabric layer, water-resistant layer and mesh inner liner"
        },
        "C": {
            "code": "C",
            "avg": 1.51,
            "vals": [
                "1.60",
                "1.10",
                "1.77",
                "1.24",
                "1.73",
                "1.62"
            ],
            "desc": "Woven fabric shell, water-resistant layer and mesh inner liner"
        }
    },
    "abrasion": {
        "rating": 2.0,
        "result": 1.55
    },
    "burst": {
        "rating": 10.0,
        "result": 1467.0
    },
    "impact": {
        "rating": 1.0,
        "result": 0.0
    },
    "moisture_vapour_resistance": "-            97.8",
    "thermal_resistance": "-           0.376",
    "file": "reports/P20T22__RST__Atlas__CE__Waterproof__Textile__Pants.txt"
}