{
    "head": {
        " ": "",
        "Brand": "BMW",
        "Model": "Airflow",
        "Type": "Pants - Textile",
        "Date purchased": "1 March 2022",
        "Sizes tested": "54",
        "Test garment gender": "Male",
        "Style": "Tourer",
        "RRP": "$580.00",
        "Test Results Summary": "Rating       Score",
        "MotoCAP Protection Rating": "\u2605\u2605           36.6",
        "Abrasion": "1/10        0.51",
        "Burst": "10/10       1440",
        "Impact": "9/10        65.5",
        "MotoCAP Breathability Rating": "\u2605\u2605          0.395",
        "Moisture Vapour Resistance": "-           34.3",
        "Thermal Resistance": "-          0.226",
        "Water resistance": "N/A          N/A"
    },
    "materials": {
        "A": {
            "code": "A",
            "avg": 0.46,
            "vals": [
                "0.37",
                "0.45",
                "0.51",
                "0.48",
                "0.46",
                "0.52"
            ],
            "desc": "Fabric shell with fabric inner liner"
        },
        "B": {
            "code": "B",
            "avg": 1.52,
            "vals": [
                "1.79",
                "1.56",
                "1.36",
                "1.37"
            ],
            "desc": "Mesh fabric shell with fabric inner liner"
        }
    },
    "abrasion": {
        "rating": 1.0,
        "result": 0.51
    },
    "burst": {
        "rating": 10.0,
        "result": 1440.0
    },
    "impact": {
        "rating": 9.0,
        "result": 65.5
    },
    "moisture_vapour_resistance": "-           34.3",
    "thermal_resistance": "-          0.226",
    "file": "reports/P20T23__BMW__Airflow__Textile__Pants.txt"
}