{
    "head": {
        " ": "This MotoCAP safety rating applies to:",
        "Brand": "Rev'It",
        "Model": "Horizon 2",
        "Type": "Pants - Textile",
        "Date purchased": "25 May 2021",
        "Sizes tested": "L and XL",
        "Test garment gender": "Male",
        "Style": "Tourer",
        "RRP": "$479.00",
        "Test Results Summary": "Rating         Score",
        "MotoCAP Protection Rating": "\u2605             23.1",
        "Abrasion": "1/10          0.68",
        "Burst": "10/10         1050",
        "Impact": "4/10          30.5",
        "MotoCAP Breathability Rating": "\u2605\u2605            0.399",
        "Moisture Vapour Resistance": "-            28.7",
        "Thermal Resistance": "-           0.191",
        "Water resistance": "10/10           0.9"
    },
    "materials": {
        "A": {
            "code": "A",
            "avg": 0.89,
            "vals": [
                "1.03",
                "0.74",
                "0.81",
                "1.05",
                "0.77",
                "0.95"
            ],
            "desc": "Heavy woven fabric shell with laminated water-resistant layer and mesh inner liner"
        },
        "B": {
            "code": "B",
            "avg": 0.64,
            "vals": [
                "0.63",
                "0.65",
                "0.59",
                "0.53",
                "0.94",
                "0.49"
            ],
            "desc": "Woven fabric shell with laminated water-resistant layer and mesh inner liner"
        }
    },
    "abrasion": {
        "rating": 1.0,
        "result": 0.68
    },
    "burst": {
        "rating": 10.0,
        "result": 1050.0
    },
    "impact": {
        "rating": 4.0,
        "result": 30.5
    },
    "moisture_vapour_resistance": "-            28.7",
    "thermal_resistance": "-           0.191",
    "file": "reports/P20T09__Rev_27It__Horizon__2__Textile__Pants.txt"
}