{
    "head": {
        " ": "Removable liners",
        "Brand": "Alpinestars",
        "Model": "Merc",
        "Type": "Pants - Denim",
        "Date purchased": "5 December 2022",
        "Sizes tested": "36 and 38",
        "Test garment gender": "Male",
        "Style": "All Purpose",
        "RRP": "$329.00",
        "Test Results Summary": "Rating          Score",
        "MotoCAP Protection Rating": "\u2be8             9.6",
        "Abrasion": "1/10         0.49",
        "Burst": "7/10         717",
        "Impact": "1/10          0.0",
        "MotoCAP Breathability Rating": "\u2605\u2605\u2605             0.522",
        "Moisture Vapour Resistance": "-           28.0",
        "Thermal Resistance": "-          0.243",
        "Water resistance": "N/A          N/A"
    },
    "materials": {
        "A": {
            "code": "A",
            "avg": 1.41,
            "vals": [
                "1.58",
                "1.25",
                "1.30",
                "1.52",
                "1.31",
                "1.48"
            ],
            "desc": "Denim fabric shell with para-aramid fabric inner liner"
        },
        "B": {
            "code": "B",
            "avg": 0.53,
            "vals": [
                "0.42",
                "0.37",
                "0.50",
                "0.71",
                "0.58",
                "0.56"
            ],
            "desc": "Denim fabric shell"
        },
        "C": {
            "code": "C",
            "avg": 0.85,
            "vals": [
                "1.00",
                "0.85",
                "0.77",
                "0.80"
            ],
            "desc": "Denim fabric shell with fabric inner liner"
        }
    },
    "abrasion": {
        "rating": 1.0,
        "result": 0.49
    },
    "burst": {
        "rating": 7.0,
        "result": 717.0
    },
    "impact": {
        "rating": 1.0,
        "result": 0.0
    },
    "moisture_vapour_resistance": "-           28.0",
    "thermal_resistance": "-          0.243",
    "file": "reports/P21D11__Alpinestars__Merc__Denim__Pants.txt"
}