{
    "head": {
        " ": "",
        "Brand": "Rev'It",
        "Model": "Womens Ellison SK Leggings",
        "Type": "Pants - Textile",
        "Date purchased": "28 July 2022",
        "Sizes tested": "XXS and XS",
        "Test garment gender": "Female",
        "Style": "All Purpose",
        "RRP": "$258.95",
        "Test Results Summary": "Rating         Score",
        "MotoCAP Protection Rating": "\u2be8             7.5",
        "Abrasion": "1/10         0.27",
        "Burst": "6/10         611",
        "Impact": "1/10          0.0",
        "MotoCAP Breathability Rating": "\u2605\u2605\u2605            0.528",
        "Moisture Vapour Resistance": "-           20.7",
        "Thermal Resistance": "-          0.182",
        "Water resistance": "N/A          N/A"
    },
    "materials": {
        "A": {
            "code": "A",
            "avg": 0.5,
            "vals": [
                "0.56",
                "0.43",
                "0.60",
                "0.47",
                "0.48",
                "0.44"
            ],
            "desc": "Knitted fabric shell with fabric inner liner"
        },
        "B": {
            "code": "B",
            "avg": 0.31,
            "vals": [
                "0.31",
                "0.22",
                "0.34",
                "0.33",
                "0.29",
                "0.34"
            ],
            "desc": "Knitted fabric shell"
        }
    },
    "abrasion": {
        "rating": 1.0,
        "result": 0.27
    },
    "burst": {
        "rating": 6.0,
        "result": 611.0
    },
    "impact": {
        "rating": 1.0,
        "result": 0.0
    },
    "moisture_vapour_resistance": "-           20.7",
    "thermal_resistance": "-          0.182",
    "file": "reports/P21T05__-__Rev_27it__Womens__Ellison__SK__Leggings__Textile__Pants.txt"
}