{
    "head": {
        " ": "This MotoCAP safety rating applies to:",
        "Brand": "Rjays",
        "Model": "Tour",
        "Type": "Pants - Textile",
        "Date purchased": "15 June 2022",
        "Sizes tested": "XL and 2XL",
        "Test garment gender": "Male",
        "Style": "Tourer",
        "RRP": "$329.95",
        "Test Results Summary": "Rating         Score",
        "MotoCAP Protection Rating": "\u2605             16.6",
        "Abrasion": "1/10           0.60",
        "Burst": "10/10          1365",
        "Impact": "1/10            0.0",
        "MotoCAP Breathability Rating": "\u2605\u2605             0.313",
        "Moisture Vapour Resistance": "-            63.3",
        "Thermal Resistance": "-           0.331",
        "Water resistance": "1/10           47.8"
    },
    "materials": {
        "A": {
            "code": "A",
            "avg": 0.59,
            "vals": [
                "0.57",
                "0.54",
                "0.52",
                "0.91",
                "0.48",
                "0.53"
            ],
            "desc": "Woven fabric shell with mesh inner liner"
        },
        "B": {
            "code": "B",
            "avg": 0.69,
            "vals": [
                "1.40",
                "0.45",
                "0.64",
                "0.56",
                "0.46",
                "0.63"
            ],
            "desc": "Stretch woven fabric shell with mesh inner liner"
        }
    },
    "abrasion": {
        "rating": 1.0,
        "result": 0.6
    },
    "burst": {
        "rating": 10.0,
        "result": 1365.0
    },
    "impact": {
        "rating": 1.0,
        "result": 0.0
    },
    "moisture_vapour_resistance": "-            63.3",
    "thermal_resistance": "-           0.331",
    "file": "reports/P21T01__Rjays__Tour__Textile__Pants.txt"
}