{
    "head": {
        " ": "This MotoCAP safety rating applies to:",
        "Brand": "KTM",
        "Model": "Adventure Rally",
        "Type": "Pants - Textile",
        "Date purchased": "12 September 2022",
        "Sizes tested": "L and XL",
        "Test garment gender": "Male",
        "Style": "Tourer",
        "RRP": "$369.45",
        "Test Results Summary": "Rating        Score",
        "MotoCAP Protection Rating": "\u2605\u2605            30.1",
        "Abrasion": "1/10          1.08",
        "Burst": "10/10         1105",
        "Impact": "6/10          45.3",
        "MotoCAP Breathability Rating": "\u2605\u2605           0.339",
        "Moisture Vapour Resistance": "-           38.8",
        "Thermal Resistance": "-          0.220",
        "Water resistance": "9/10           1.5"
    },
    "materials": {
        "A": {
            "code": "A",
            "avg": 1.03,
            "vals": [
                "0.93",
                "0.88",
                "0.77",
                "0.90",
                "1.32",
                "1.37"
            ],
            "desc": "Woven fabric shell with mesh inner liner"
        },
        "B": {
            "code": "B",
            "avg": 5.22,
            "vals": [
                "5.38",
                "6.00",
                "5.28",
                "5.06",
                "5.91",
                "3.67"
            ],
            "desc": "Leather shell with fabric inner liner"
        },
        "C": {
            "code": "C",
            "avg": 0.6,
            "vals": [
                "0.60",
                "0.49",
                "0.78",
                "0.59",
                "0.51"
            ],
            "desc": "Stretch fabric shell with mesh inner liner"
        }
    },
    "abrasion": {
        "rating": 1.0,
        "result": 1.08
    },
    "burst": {
        "rating": 10.0,
        "result": 1105.0
    },
    "impact": {
        "rating": 6.0,
        "result": 45.3
    },
    "moisture_vapour_resistance": "-           38.8",
    "thermal_resistance": "-          0.220",
    "file": "reports/P21T08__-__KTM__Adventure__Rally__Textile__Pants.txt"
}