{
    "head": {
        " ": "This MotoCAP safety rating applies to:",
        "Brand": "RST",
        "Model": "Blade Sport II CE W/P",
        "Type": "Pants - Textile",
        "Date purchased": "28 July 2022",
        "Sizes tested": "XL and 2XL",
        "Test garment gender": "Male",
        "Style": "All Purpose",
        "RRP": "$199.95",
        "Test Results Summary": "Rating         Score",
        "MotoCAP Protection Rating": "\u2605             15.9",
        "Abrasion": "1/10          0.13",
        "Burst": "10/10         1525",
        "Impact": "1/10           0.0",
        "MotoCAP Breathability Rating": "\u2605            0.199",
        "Moisture Vapour Resistance": "-            99.7",
        "Thermal Resistance": "-           0.331",
        "Water resistance": "9/10            1.7"
    },
    "materials": {
        "A": {
            "code": "A",
            "avg": 2.18,
            "vals": [
                "2.29",
                "2.04",
                "2.30",
                "2.11"
            ],
            "desc": "Heavy woven fabric shell, foam layer, mesh liner, water resistant liner and mesh liner"
        },
        "B": {
            "code": "B",
            "avg": 0.67,
            "vals": [
                "0.97",
                "0.64",
                "0.84",
                "0.28",
                "0.56",
                "0.74"
            ],
            "desc": "Fabric shell, water resistant layer and mesh inner liner"
        }
    },
    "abrasion": {
        "rating": 1.0,
        "result": 0.13
    },
    "burst": {
        "rating": 10.0,
        "result": 1525.0
    },
    "impact": {
        "rating": 1.0,
        "result": 0.0
    },
    "moisture_vapour_resistance": "-            99.7",
    "thermal_resistance": "-           0.331",
    "file": "reports/P21T06__RST__Blade__Sport__II__CE__WP__Textile__Pants_0.txt"
}