{
    "head": {
        " ": "Jo/Nathan Blue Combo with",
        "Brand": "TKD",
        "Model": "Coolmax Liner",
        "Type": "Pants-Demin",
        "Date purchased": "20 January 2024",
        "Sizes tested": "36 and 38",
        "Test garment gender": "Male",
        "Style": "All Purpose",
        "RRP": "$339.95",
        "Test Results Summary": "Rating       Score",
        "MotoCAP Protection Rating": "\u2605\u2605           38.4",
        "Abrasion": "4/10         3.32",
        "Burst": "7/10         748",
        "Impact": "7/10         47.8",
        "MotoCAP Breathability Rating": "\u2605\u2605\u2605          0.443",
        "Moisture Vapour Resistance": "-           26.1",
        "Thermal Resistance": "-          0.193",
        "Water resistance": "N/A          N/A"
    },
    "materials": {
        "A": {
            "code": "A",
            "avg": 4.79,
            "vals": [
                "4.57",
                "4.90",
                "4.50",
                "5.38",
                "5.14",
                "4.25"
            ],
            "desc": "Denim fabric shell, para-aramid fabric layer and mesh inner liner"
        },
        "B": {
            "code": "B",
            "avg": 0.59,
            "vals": [
                "0.87",
                "0.64",
                "0.87",
                "0.40",
                "0.33",
                "0.41"
            ],
            "desc": "Denim fabric shell with mesh inner liner"
        }
    },
    "abrasion": {
        "rating": 4.0,
        "result": 3.32
    },
    "burst": {
        "rating": 7.0,
        "result": 748.0
    },
    "impact": {
        "rating": 7.0,
        "result": 47.8
    },
    "moisture_vapour_resistance": "-           26.1",
    "thermal_resistance": "-          0.193",
    "file": "reports/P24D10__-__TKD__Jo__Nathan__Blue__Combo__with__Coolmax__Liner__Denim__Pants.txt"
}