{
    "head": {
        " ": "",
        "Brand": "Bull-It",
        "Model": "Tactical Elara Slim women's",
        "Type": "Pants-Denim",
        "Date purchased": "22 November 2023",
        "Sizes tested": "12 and 14",
        "Test garment gender": "Female",
        "Style": "All Purpose",
        "RRP": "$199.95",
        "Test Results Summary": "Rating       Score",
        "MotoCAP Protection Rating": "\u2605\u2605           31.3",
        "Abrasion": "1/10         1.12",
        "Burst": "8/10         899",
        "Impact": "8/10         55.8",
        "MotoCAP Breathability Rating": "\u2605\u2605\u2605\u2605          0.531",
        "Moisture Vapour Resistance": "-           20.5",
        "Thermal Resistance": "-          0.181",
        "Water resistance": "N/A          N/A"
    },
    "materials": {
        "A": {
            "code": "A",
            "avg": 2.46,
            "vals": [
                "2.55",
                "3.19",
                "2.07",
                "3.05",
                "1.76",
                "2.15"
            ],
            "desc": "Denim fabric shell, knitted fabric layer and mesh inner liner"
        },
        "C": {
            "code": "C",
            "avg": 1.38,
            "vals": [
                "2.11",
                "1.43",
                "0.97",
                "1.53",
                "1.30",
                "0.94"
            ],
            "desc": "Denim fabric shell"
        },
        "B": {
            "code": "B",
            "avg": 1.3,
            "vals": [
                "1.44",
                "1.13",
                "2.06",
                "0.95",
                "1.06",
                "1.18"
            ],
            "desc": "Denim fabric shell with mesh inner liner"
        }
    },
    "abrasion": {
        "rating": 1.0,
        "result": 1.12
    },
    "burst": {
        "rating": 8.0,
        "result": 899.0
    },
    "impact": {
        "rating": 8.0,
        "result": 55.8
    },
    "moisture_vapour_resistance": "-           20.5",
    "thermal_resistance": "-          0.181",
    "file": "reports/P24D08__Bull-It__Tactical__Elara__Slim__Womens__Grey__Denim__Pants.txt"
}