{
    "head": {
        " ": "",
        "Brand": "Merlin",
        "Model": "Lapworth WR",
        "Type": "Pants - Denim",
        "Date purchased": "22 November 2023",
        "Sizes tested": "34 and 36",
        "Test garment gender": "Male",
        "Style": "All Purpose",
        "RRP": "$299.95",
        "Test Results Summary": "Rating       Score",
        "MotoCAP Protection Rating": "\u2605\u2605           29.8",
        "Abrasion": "3/10        2.76",
        "Burst": "10/10       1597",
        "Impact": "1/10         0.0",
        "MotoCAP Breathability Rating": "\u2605\u2605          0.306",
        "Moisture Vapour Resistance": "-           22.4",
        "Thermal Resistance": "-          0.114",
        "Water resistance": "N/A          N/A"
    },
    "materials": {
        "A": {
            "code": "A",
            "avg": 4.7,
            "vals": [
                "10.00",
                "4.64",
                "3.23",
                "4.04",
                "3.31",
                "3.00"
            ],
            "desc": "Denim fabric shell, para-aramid fabric layer and fabric inner liner"
        },
        "B": {
            "code": "B",
            "avg": 1.22,
            "vals": [
                "1.50",
                "1.27",
                "0.97",
                "1.48",
                "1.12",
                "0.98"
            ],
            "desc": "Denim fabric shell with mesh inner liner"
        },
        "C": {
            "code": "C",
            "avg": 0.6,
            "vals": [
                "0.67",
                "0.66",
                "0.57",
                "0.72",
                "0.44",
                "0.54"
            ],
            "desc": "Denim fabric shell"
        }
    },
    "abrasion": {
        "rating": 3.0,
        "result": 2.76
    },
    "burst": {
        "rating": 10.0,
        "result": 1597.0
    },
    "impact": {
        "rating": 1.0,
        "result": 0.0
    },
    "moisture_vapour_resistance": "-           22.4",
    "thermal_resistance": "-          0.114",
    "file": "reports/P24D07__-__Merlin__Lapworth__WR__Denim__Pants.txt"
}