{
    "head": {
        " ": "",
        "Brand": "Triumph",
        "Model": "Craner",
        "Type": "Denim pants",
        "Date purchased": "8 May 2024",
        "Sizes tested": "36 and 38",
        "Test garment gender": "Male",
        "Style": "All Purpose",
        "RRP": "$363.58",
        "Test Results Summary": "Rating       Score",
        "MotoCAP Protection Rating": "\u2605\u2605           35.1",
        "Abrasion": "2/10         1.48",
        "Burst": "8/10         853",
        "Impact": "8/10         64.1",
        "MotoCAP Breathability Rating": "\u2605\u2605\u2605          0.418",
        "Moisture Vapour Resistance": "-           21.3",
        "Thermal Resistance": "-          0.149",
        "Water resistance": "N/A          N/A"
    },
    "materials": {
        "A": {
            "code": "A",
            "avg": 1.48,
            "vals": [
                "2.56",
                "0.90",
                "0.99",
                "1.94",
                "1.31",
                "1.17"
            ],
            "desc": "Denim fabric shell"
        }
    },
    "abrasion": {
        "rating": 2.0,
        "result": 1.48
    },
    "burst": {
        "rating": 8.0,
        "result": 853.0
    },
    "impact": {
        "rating": 8.0,
        "result": 64.1
    },
    "moisture_vapour_resistance": "-           21.3",
    "thermal_resistance": "-          0.149",
    "file": "reports/P24D14__-__Triumph__Craner__Denim__Pants.txt"
}