{
    "head": {
        " ": "",
        "Brand": "Oxford",
        "Model": "Straight Jean",
        "Type": "Denim Pants",
        "Date purchased": "13 March 2024",
        "Sizes tested": "38",
        "Test garment gender": "Male",
        "Style": "All Purpose",
        "RRP": "$259.00",
        "Test Results Summary": "Rating       Score",
        "MotoCAP Protection Rating": "\u2605\u2605           29.4",
        "Abrasion": "1/10         1.08",
        "Burst": "8/10         885",
        "Impact": "7/10         50.4",
        "MotoCAP Breathability Rating": "\u2605\u2605\u2605          0.441",
        "Moisture Vapour Resistance": "-           22.3",
        "Thermal Resistance": "-          0.164",
        "Water resistance": "N/A          N/A"
    },
    "materials": {
        "A": {
            "code": "A",
            "avg": 2.07,
            "vals": [
                "2.42",
                "1.99",
                "1.56",
                "2.72",
                "2.11",
                "1.62"
            ],
            "desc": "Denim fabric shell with fabric layer"
        },
        "B": {
            "code": "B",
            "avg": 1.08,
            "vals": [
                "1.39",
                "0.87",
                "0.73",
                "1.73",
                "0.84",
                "0.91"
            ],
            "desc": "Denim fabric shell"
        }
    },
    "abrasion": {
        "rating": 1.0,
        "result": 1.08
    },
    "burst": {
        "rating": 8.0,
        "result": 885.0
    },
    "impact": {
        "rating": 7.0,
        "result": 50.4
    },
    "moisture_vapour_resistance": "-           22.3",
    "thermal_resistance": "-          0.164",
    "file": "reports/P24D13__-__Oxford__Original__Approved__AA__Straight__Jean__Denim__Pants.txt"
}