{
    "head": {
        " ": "",
        "Brand": "Bikers Gear",
        "Model": "Climate Ladies Kevlar Lined",
        "Type": "Pants - Textile",
        "Date purchased": "19 August 2023",
        "Sizes tested": "16 and 18",
        "Test garment gender": "Female",
        "Style": "All Purpose",
        "RRP": "$169.00",
        "Test Results Summary": "Rating         Score",
        "MotoCAP Protection Rating": "\u2be8             10.1",
        "Abrasion": "1/10           0.74",
        "Burst": "6/10           646",
        "Impact": "1/10            0.0",
        "MotoCAP Breathability Rating": "\u2605\u2605\u2605            0.445",
        "Moisture Vapour Resistance": "-             28.7",
        "Thermal Resistance": "-            0.213",
        "Water resistance": "N/A            N/A"
    },
    "materials": {
        "A": {
            "code": "A",
            "avg": 0.81,
            "vals": [
                "0.97",
                "0.99",
                "0.87",
                "0.94",
                "0.63",
                "0.44"
            ],
            "desc": "Stretch fabric shell and para-aramid fabric layer"
        },
        "B": {
            "code": "B",
            "avg": 0.25,
            "vals": [
                "0.26",
                "0.18",
                "0.29",
                "0.18",
                "0.32",
                "0.25"
            ],
            "desc": "Stretch fabric shell"
        }
    },
    "abrasion": {
        "rating": 1.0,
        "result": 0.74
    },
    "burst": {
        "rating": 6.0,
        "result": 646.0
    },
    "impact": {
        "rating": 1.0,
        "result": 0.0
    },
    "moisture_vapour_resistance": "-             28.7",
    "thermal_resistance": "-            0.213",
    "file": "reports/P24T01__Bikers__Gear__Climate__Ladies__Kevlar__Lined__Textile__Pants.txt"
}