{
    "head": {
        " ": "",
        "Brand": "Klim",
        "Model": "Women's Outrider",
        "Type": "Pants - Textile",
        "Date purchased": "22 September 2023",
        "Sizes tested": "10 and 12",
        "Test garment gender": "Female",
        "Style": "All Purpose",
        "RRP": "$379.95",
        "Test Results Summary": "Rating         Score",
        "MotoCAP Protection Rating": "\u2605             25.6",
        "Abrasion": "1/10           0.31",
        "Burst": "7/10           717",
        "Impact": "8/10           56.3",
        "MotoCAP Breathability Rating": "\u2605\u2605\u2605\u2605            0.646",
        "Moisture Vapour Resistance": "-             13.8",
        "Thermal Resistance": "-            0.148",
        "Water resistance": "N/A            N/A"
    },
    "materials": {
        "A": {
            "code": "A",
            "avg": 3.22,
            "vals": [
                "3.70",
                "4.32",
                "2.45",
                "3.21",
                "2.47",
                "3.14"
            ],
            "desc": "Three layers of woven fabric"
        },
        "B": {
            "code": "B",
            "avg": 0.31,
            "vals": [
                "0.37",
                "0.28",
                "0.28",
                "0.34",
                "0.32",
                "0.26"
            ],
            "desc": "Woven fabric shell"
        }
    },
    "abrasion": {
        "rating": 1.0,
        "result": 0.31
    },
    "burst": {
        "rating": 7.0,
        "result": 717.0
    },
    "impact": {
        "rating": 8.0,
        "result": 56.3
    },
    "moisture_vapour_resistance": "-             13.8",
    "thermal_resistance": "-            0.148",
    "file": "reports/P24T07__Klim__Women_27s__Outrider__Textile__Pants.txt"
}