{
    "head": {
        " ": "This MotoCAP safety rating applies to:",
        "Brand": "Bikers Gear",
        "Model": "Velocity WP",
        "Type": "Pants - Textile",
        "Date purchased": "30 August 2024",
        "Sizes tested": "36 and 38",
        "Test garment gender": "Male",
        "Style": "All Purpose",
        "RRP": "$179.00",
        "Test Results Summary": "Rating         Score",
        "MotoCAP Protection Rating": "\u2605             16.6",
        "Abrasion": "1/10          0.64",
        "Burst": "10/10         1341",
        "Impact": "1/10           0.0",
        "MotoCAP Breathability Rating": "\u2be8            0.049",
        "Moisture Vapour Resistance": "-           362.6",
        "Thermal Resistance": "-           0.295",
        "Water resistance": "9/10            1.0"
    },
    "materials": {
        "A": {
            "code": "A",
            "avg": 1.55,
            "vals": [
                "0.80",
                "0.88",
                "2.20",
                "2.01",
                "2.30",
                "1.11"
            ],
            "desc": "Double woven fabric shell, water-resistant layer and fabric inner liner"
        },
        "B": {
            "code": "B",
            "avg": 0.53,
            "vals": [
                "0.87",
                "0.34",
                "0.36",
                "0.57",
                "0.61",
                "0.44"
            ],
            "desc": "Woven fabric shell, water-resistant layer and fabric inner liner"
        }
    },
    "abrasion": {
        "rating": 1.0,
        "result": 0.64
    },
    "burst": {
        "rating": 10.0,
        "result": 1341.0
    },
    "impact": {
        "rating": 1.0,
        "result": 0.0
    },
    "moisture_vapour_resistance": "-           362.6",
    "thermal_resistance": "-           0.295",
    "file": "reports/P25T03__-__Bikers__Gear__Velocity__WP__Textile__Pants.txt"
}