{
    "head": {
        " ": "High risk of impact",
        "Brand": "Saint",
        "Model": "Model 2",
        "Type": "Pants - Denim",
        "Date purchased": "4 July 2018",
        "Sizes tested": "36",
        "Gender": "M",
        "Style": "All Purpose",
        "Test code": "P18D02",
        "Rating": "Result",
        "MotoCAP Protection Rating": "\uf0ea\uf0ea          39.5",
        "Abrasion": "1/10        1.16",
        "Burst": "8/10        900",
        "Impact": "7/10        52.4",
        "MotoCAP Comfort Rating": "\uf0ea\uf0ea\uf0ea         0.500",
        "Moisture Vapour Resistance": "19.0",
        "Thermal Resistance": "0.158",
        "Water Resistance": "N/A",
        "Zone 1": "Zone 2                      Zone 3                       Zone 4",
        "High risk of abrasion": "High risk of abrasion     Medium risk of abrasion         Low risk of abrasion"
    },
    "materials": {
        "A": {
            "code": "A",
            "desc": "Single layer of denim with black outer and white shiny inner yarn",
            "avg": 1.51,
            "vals": [
                "1.85",
                "0.96",
                "0.88",
                "1.93",
                "1.39",
                "2.09"
            ]
        },
        "B": {
            "code": "B",
            "desc": "Single layer of denim with black outer and yellow inner yarn",
            "avg": 0.63,
            "vals": [
                "1.00",
                "0.62",
                "0.50",
                "0.57",
                "0.44",
                "0.66"
            ]
        }
    },
    "abrasion": {
        "rating": 1.0,
        "result": 1.16
    },
    "burst": {
        "rating": 8.0,
        "result": 900.0
    },
    "impact": {
        "rating": 7.0,
        "result": 52.4
    },
    "moisture_vapour_resistance": 19.0,
    "thermal_resistance": 0.158,
    "water_resistance": "N/A",
    "file": "reports/Saint__Model__2__MotoCAP__report.txt"
}